{
	"IcoMoonType": "selection",
	"icons": [
		{
			"icon": {
				"paths": [
					"M996.571 804.571q18.857 0 24 10.571t-6.286 25.429l-72 92.571q-11.429 14.857-28 14.857t-28-14.857l-72-92.571q-11.429-14.857-6.286-25.429t24-10.571h45.714v-585.143h-45.714q-18.857 0-24-10.571t6.286-25.429l72-92.571q11.429-14.857 28-14.857t28 14.857l72 92.571q11.429 14.857 6.286 25.429t-24 10.571h-45.714v585.143h45.714zM46.286 73.714l30.857 15.429q6.857 2.857 120.571 2.857 25.143 0 75.429-1.143t75.429-1.143q20.571 0 61.429 0.286t61.429 0.286h167.429q3.429 0 12 0.286t11.714 0 9.143-1.714 10-5.143 8.571-10l24-0.571q2.286 0 8 0.286t8 0.286q1.143 64 1.143 192 0 45.714-2.857 62.286-22.286 8-38.857 10.286-14.286-25.143-30.857-73.143-1.714-5.143-6.286-27.429t-8.286-42-4.286-20.286q-3.429-4.571-6.857-7.143t-8.857-3.429-7.429-1.429-10.286-0.286-9.429 0.286q-9.714 0-38-0.286t-42.571-0.286-36.571 1.143-40.571 3.429q-5.143 46.286-4.571 77.714 0 53.714 1.143 221.714t1.143 260q0 9.143-1.429 40.857t0 52.286 7.143 39.429q22.857 12 70.857 24.286t68.571 21.429q2.857 22.857 2.857 28.571 0 8-1.714 16.571l-19.429 0.571q-43.429 1.143-124.571-4.571t-118.286-5.714q-28.571 0-86.286 5.143t-86.857 5.143q-1.714-29.143-1.714-29.714v-5.143q9.714-15.429 35.143-24.571t56.286-16.571 44.571-15.429q10.857-24 10.857-218.857 0-57.714-1.714-173.143t-1.714-173.143v-66.857q0-1.143 0.286-8.857t0.286-14.286-0.571-14.571-1.714-13.714-2.857-8q-6.286-6.857-92.571-6.857-18.857 0-53.143 6.857t-45.714 14.857q-10.857 7.429-19.429 41.429t-18 63.429-24.286 30.571q-24-14.857-32-25.143v-218.857z"
				],
				"attrs": [],
				"isMulticolor": false,
				"tags": [
					"text-height"
				],
				"defaultCode": 61492,
				"grid": 14
			},
			"attrs": [],
			"properties": {
				"name": "text-height",
				"order": 1,
				"id": 50,
				"prevSize": 28,
				"code": 61492
			},
			"setIdx": 0,
			"setId": 6,
			"iconIdx": 49
		},
		{
			"icon": {
				"paths": [
					"M640 146.286h-475.429q-37.714 0-64.571 26.857t-26.857 64.571v475.429q0 37.714 26.857 64.571t64.571 26.857h475.429q37.714 0 64.571-26.857t26.857-64.571v-475.429q0-37.714-26.857-64.571t-64.571-26.857zM804.571 237.714v475.429q0 68-48.286 116.286t-116.286 48.286h-475.429q-68 0-116.286-48.286t-48.286-116.286v-475.429q0-68 48.286-116.286t116.286-48.286h475.429q68 0 116.286 48.286t48.286 116.286z"
				],
				"width": 805,
				"attrs": [],
				"isMulticolor": false,
				"tags": [
					"square-o"
				],
				"defaultCode": 61590,
				"grid": 14
			},
			"attrs": [],
			"properties": {
				"name": "square",
				"order": 1,
				"id": 142,
				"prevSize": 28,
				"code": 61590
			},
			"setIdx": 4,
			"setId": 2,
			"iconIdx": 0
		},
		{
			"icon": {
				"paths": [
					"M438.857 146.286q-74.286 0-142 29.143t-116.571 78-78 116.571-29.143 142 29.143 142 78 116.571 116.571 78 142 29.143 142-29.143 116.571-78 78-116.571 29.143-142-29.143-142-78-116.571-116.571-78-142-29.143zM877.714 512q0 119.429-58.857 220.286t-159.714 159.714-220.286 58.857-220.286-58.857-159.714-159.714-58.857-220.286 58.857-220.286 159.714-159.714 220.286-58.857 220.286 58.857 159.714 159.714 58.857 220.286z"
				],
				"attrs": [],
				"isMulticolor": false,
				"tags": [
					"circle-thin",
					"genderless"
				],
				"defaultCode": 61915,
				"grid": 14
			},
			"attrs": [],
			"properties": {
				"name": "circle",
				"order": 2,
				"id": 433,
				"prevSize": 28,
				"code": 61915
			},
			"setIdx": 4,
			"setId": 2,
			"iconIdx": 1
		},
		{
			"icon": {
				"paths": [
					"M261.714 504.571q-42.286-92.571-42.286-212h-146.286v54.857q0 44.571 54 92.571t134.571 64.571zM877.714 347.429v-54.857h-146.286q0 119.429-42.286 212 80.571-16.571 134.571-64.571t54-92.571zM950.857 274.286v73.143q0 40.571-23.714 81.714t-64 74.286-98.857 55.714-123.143 25.429q-24 30.857-54.286 54.286-21.714 19.429-30 41.429t-8.286 51.143q0 30.857 17.429 52t55.714 21.143q42.857 0 76.286 26t33.429 65.429v36.571q0 8-5.143 13.143t-13.143 5.143h-475.429q-8 0-13.143-5.143t-5.143-13.143v-36.571q0-39.429 33.429-65.429t76.286-26q38.286 0 55.714-21.143t17.429-52q0-29.143-8.286-51.143t-30-41.429q-30.286-23.429-54.286-54.286-64.571-2.857-123.143-25.429t-98.857-55.714-64-74.286-23.714-81.714v-73.143q0-22.857 16-38.857t38.857-16h164.571v-54.857q0-37.714 26.857-64.571t64.571-26.857h329.143q37.714 0 64.571 26.857t26.857 64.571v54.857h164.571q22.857 0 38.857 16t16 38.857z"
				],
				"width": 951,
				"attrs": [],
				"isMulticolor": false,
				"tags": [
					"trophy"
				],
				"defaultCode": 61585,
				"grid": 14
			},
			"attrs": [],
			"properties": {
				"name": "trophy",
				"order": 1,
				"id": 137,
				"prevSize": 28,
				"code": 61585
			},
			"setIdx": 4,
			"setId": 2,
			"iconIdx": 2
		},
		{
			"icon": {
				"paths": [
					"M317.143 869.143q42.286 18.286 80 18.286 214.857 0 214.857-191.429 0-65.143-23.429-102.857-15.429-25.143-35.143-42.286t-38.571-26.571-46-14.286-48-6-54-1.143q-41.714 0-57.714 5.714 0 30.286-0.286 90.857t-0.286 90.286q0 4.571-0.571 38.571t-0.286 55.143 2.571 47.714 6.857 38zM309.143 442.857q24 4 62.286 4 46.857 0 81.714-7.429t62.857-25.429 42.571-51.143 14.571-81.143q0-40-16.571-70t-45.143-46.857-61.714-24.857-70.857-8q-28.571 0-74.286 7.429 0 28.571 2.286 86.286t2.286 86.857q0 15.429-0.286 45.714t-0.286 45.143q0 26.286 0.571 39.429zM0 950.857l1.143-53.714q8.571-2.286 48.571-9.143t60.571-15.429q4-6.857 7.143-15.429t4.857-19.143 3.143-18.571 1.714-21.429 0.286-19.429v-37.429q0-561.143-12.571-585.714-2.286-4.571-12.571-8.286t-25.429-6.286-28.286-4-27.714-2.571-17.429-1.714l-2.286-47.429q56-1.143 194.286-6.571t213.143-5.429q13.143 0 39.143 0.286t38.571 0.286q40 0 78 7.429t73.429 24 61.714 40.571 42.286 59.714 16 78.571q0 29.714-9.429 54.571t-22.286 41.143-36.857 32.857-41.714 25.714-48 22.857q88 20 146.571 76.571t58.571 141.714q0 57.143-20 102.571t-53.429 74.571-78.857 48.857-93.429 27.714-100.571 8q-25.143 0-75.429-1.714t-75.429-1.714q-60.571 0-175.429 6.286t-132 6.857z"
				],
				"width": 805,
				"attrs": [],
				"isMulticolor": false,
				"tags": [
					"bold"
				],
				"defaultCode": 61490,
				"grid": 14
			},
			"attrs": [],
			"properties": {
				"name": "editor-bold",
				"order": 47,
				"id": 48,
				"prevSize": 28,
				"code": 61490
			},
			"setIdx": 4,
			"setId": 2,
			"iconIdx": 3
		},
		{
			"icon": {
				"paths": [
					"M438.857 73.143q119.429 0 220.286 58.857t159.714 159.714 58.857 220.286-58.857 220.286-159.714 159.714-220.286 58.857-220.286-58.857-159.714-159.714-58.857-220.286 58.857-220.286 159.714-159.714 220.286-58.857zM595.429 370.857q-1.143 0.571-5.429 5.429t-7.714 5.429q1.143 0 2.571-2.857t2.857-6.286 2-4q3.429-4 12.571-8.571 8-3.429 29.714-6.857 19.429-4.571 29.143 6.286-1.143-1.143 5.429-7.429t8.286-6.857q1.714-1.143 8.571-2.571t8.571-4.286l1.143-12.571q-6.857 0.571-10-4t-3.714-12q0 1.143-3.429 4.571 0-4-2.571-4.571t-6.571 0.571-5.143 0.571q-5.714-1.714-8.571-4.286t-4.571-9.429-2.286-8.571q-1.143-2.857-5.429-6t-5.429-6q-0.571-1.143-1.429-3.143t-1.714-3.714-2.286-3.143-3.143-1.429-4 2.857-4.286 5.714-2.571 2.857q-1.714-1.143-3.429-0.857t-2.571 0.571-2.571 1.714-2.857 2q-1.714 1.143-4.857 1.714t-4.857 1.143q8.571-2.857-0.571-6.286-5.714-2.286-9.143-1.714 5.143-2.286 4.286-6.857t-4.857-8h2.857q-0.571-2.286-4.857-4.857t-10-4.857-7.429-3.429q-4.571-2.857-19.429-5.429t-18.857-0.286q-2.857 3.429-2.571 6t2.286 8 2 7.143q0.571 3.429-3.143 7.429t-3.714 6.857q0 4 8 8.857t5.714 12.286q-1.714 4.571-9.143 9.143t-9.143 6.857q-2.857 4.571-0.857 10.571t6 9.429q1.143 1.143 0.857 2.286t-2 2.571-3.143 2.286-3.714 2l-1.714 1.143q-6.286 2.857-11.714-3.429t-7.714-14.857q-4-14.286-9.143-17.143-13.143-4.571-16.571 0.571-2.857-7.429-23.429-14.857-14.286-5.143-33.143-2.286 3.429-0.571 0-8.571-4-8.571-10.857-6.857 1.714-3.429 2.286-10t0.571-7.714q1.714-7.429 6.857-13.143 0.571-0.571 4-4.857t5.429-7.714 0.286-3.429q20 2.286 28.571-6.286 2.857-2.857 6.571-9.714t6-9.714q5.143-3.429 8-3.143t8.286 3.143 8.286 2.857q8 0.571 8.857-6.286t-4.286-11.429q6.857 0.571 1.714-9.714-2.857-4-4.571-5.143-6.857-2.286-15.429 2.857-4.571 2.286 1.143 4.571-0.571-0.571-5.429 6t-9.429 10-9.143-2.857q-0.571-0.571-3.143-7.714t-5.429-7.714q-4.571 0-9.143 8.571 1.714-4.571-6.286-8.571t-13.714-4.571q10.857-6.857-4.571-15.429-4-2.286-11.714-2.857t-11.143 2.286q-2.857 4-3.143 6.571t2.857 4.571 6 3.143 6.571 2.286 4.857 1.714q8 5.714 4.571 8-1.143 0.571-4.857 2t-6.571 2.571-3.429 2.286q-1.714 2.286 0 8t-1.143 8q-2.857-2.857-5.143-10t-4-9.429q4 5.143-14.286 3.429l-5.714-0.571q-2.286 0-9.143 1.143t-11.714 0.571-7.714-4.571q-2.286-4.571 0-11.429 0.571-2.286 2.286-1.143-2.286-1.714-6.286-5.429t-5.714-4.857q-26.286 8.571-53.714 23.429 3.429 0.571 6.857-0.571 2.857-1.143 7.429-3.714t5.714-3.143q19.429-8 24-4l2.857-2.857q8 9.143 11.429 14.286-4-2.286-17.143-0.571-11.429 3.429-12.571 6.857 4 6.857 2.857 10.286-2.286-1.714-6.571-5.714t-8.286-6.286-8.571-2.857q-9.143 0-12.571 0.571-83.429 45.714-134.286 126.857 4 4 6.857 4.571 2.286 0.571 2.857 5.143t1.429 6.286 6.571-1.714q5.143 4.571 1.714 10.857 0.571-0.571 25.143 15.429 10.857 9.714 12 12 1.714 6.286-5.714 10.286-0.571-1.143-5.143-5.143t-5.143-2.286q-1.714 2.857 0.286 10.571t6 7.143q-4 0-5.429 9.143t-1.429 20.286-0.571 13.429l1.143 0.571q-1.714 6.857 3.143 19.714t12.286 11.143q-7.429 1.714 11.429 24.571 3.429 4.571 4.571 5.143 1.714 1.143 6.857 4.286t8.571 5.714 5.714 6q2.286 2.857 5.714 12.857t8 13.429q-1.143 3.429 5.429 11.429t6 13.143q-0.571 0-1.429 0.571t-1.429 0.571q1.714 4 8.857 8t8.857 7.429q0.571 1.714 1.143 5.714t1.714 6.286 4.571 1.143q1.143-11.429-13.714-35.429-8.571-14.286-9.714-16.571-1.714-2.857-3.143-8.857t-2.571-8.286q1.143 0 3.429 0.857t4.857 2 4.286 2.286 1.143 1.714q-1.714 4 1.143 10t6.857 10.571 9.714 10.857 6.857 7.429q3.429 3.429 8 11.143t0 7.714q5.143 0 11.429 5.714t9.714 11.429q2.857 4.571 4.571 14.857t2.857 13.714q1.143 4 4.857 7.714t7.143 5.429l9.143 4.571t7.429 4q2.857 1.143 10.571 6t12.286 6.571q5.714 2.286 9.143 2.286t8.286-1.429 7.714-2q8.571-1.143 16.571 8.571t12 12q20.571 10.857 31.429 6.286-1.143 0.571 0.286 4.286t4.571 8.857 5.143 8.286 3.143 4.857q2.857 3.429 10.286 8.571t10.286 8.571q3.429-2.286 4-5.143-1.714 4.571 4 11.429t10.286 5.714q8-1.714 8-18.286-17.714 8.571-28-10.286 0-0.571-1.429-3.143t-2.286-4.857-1.429-4.857 0-4.286 2.857-1.714q5.143 0 5.714-2t-1.143-7.143-2.286-7.429q-0.571-4.571-6.286-11.429t-6.857-8.571q-2.857 5.143-9.143 4.571t-9.143-5.143q0 0.571-0.857 3.143t-0.857 3.714q-7.429 0-8.571-0.571 0.571-1.714 1.429-10t2-12.857q0.571-2.286 3.143-6.857t4.286-8.286 2.286-7.143-2.571-5.429-10-1.429q-10.857 0.571-14.857 11.429-0.571 1.714-1.714 6t-2.857 6.571-5.143 4q-4 1.714-13.714 1.143t-13.714-2.857q-7.429-4.571-12.857-16.571t-5.429-21.143q0-5.714 1.429-15.143t1.714-14.286-3.143-14q1.714-1.143 5.143-5.429t5.714-6q1.143-0.571 2.571-0.857t2.571 0 2.286-0.857 1.714-3.429q-0.571-0.571-2.286-1.714-1.714-1.714-2.286-1.714 4 1.714 16.286-0.857t15.714 0.857q8.571 6.286 12.571-1.143 0-0.571-1.429-5.429t-0.286-7.714q2.857 15.429 16.571 5.143 1.714 1.714 8.857 2.857t10 2.857q1.714 1.143 4 3.143t3.143 2.571 2.857-0.286 4.857-3.714q5.714 8 6.857 13.714 6.286 22.857 10.857 25.143 4 1.714 6.286 1.143t2.571-5.429 0-8-0.857-7.143l-0.571-4.571v-10.286l-0.571-4.571q-8.571-1.714-10.571-6.857t0.857-10.571 8.571-10.571q0.571-0.571 4.571-2t8.857-3.714 7.143-4.571q12-10.857 8.571-20 4 0 6.286-5.143-0.571 0-2.857-1.714t-4.286-2.857-2.571-1.143q5.143-2.857 1.143-9.143 2.857-1.714 4.286-6.286t4.286-5.714q5.143 6.857 12 1.143 4-4.571 0.571-9.143 2.857-4 11.714-6t10.571-5.429q4 1.143 4.571-1.143t0.571-6.857 1.714-6.857q2.286-2.857 8.571-5.143t7.429-2.857l9.714-6.286q1.714-2.286 0-2.286 10.286 1.143 17.714-6.286 5.714-6.286-3.429-11.429 1.714-3.429-1.714-5.429t-8.571-3.143q1.714-0.571 6.571-0.286t6-0.857q8.571-5.714-4-9.143-9.714-2.857-24.571 6.857zM502.286 872q117.714-20.571 200.571-108-1.714-1.714-7.143-2.571t-7.143-2q-10.286-4-13.714-4.571 0.571-4-1.429-7.429t-4.571-5.143-7.143-4.571-6.286-4q-1.143-1.143-4-3.429t-4-3.143-4.286-2.571-4.857-1.143-5.714 0.571l-1.714 0.571q-1.714 0.571-3.143 1.429t-3.143 1.714-2.286 1.714 0 1.429q-12-9.714-20.571-12.571-2.857-0.571-6.286-3.143t-6-4-5.714-0.857-6.571 4q-2.857 2.857-3.429 8.571t-1.143 7.429q-4-2.857 0-10t1.143-10.571q-1.714-3.429-6-2.571t-6.857 2.571-6.571 4.857-5.143 3.714-4.857 3.143-4.857 4.286q-1.714 2.286-3.429 6.857t-2.857 6.286q-1.143-2.286-6.571-3.714t-5.429-3.143q1.143 5.714 2.286 20t2.857 21.714q4 17.714-6.857 27.429-15.429 14.286-16.571 22.857-2.286 12.571 6.857 14.857 0 4-4.571 11.714t-4 12.286q0 3.429 1.143 9.143z"
				],
				"attrs": [],
				"isMulticolor": false,
				"tags": [
					"globe"
				],
				"defaultCode": 61612,
				"grid": 14
			},
			"attrs": [],
			"properties": {
				"name": "editor-hyperlink",
				"order": 48,
				"id": 163,
				"prevSize": 28,
				"code": 61612
			},
			"setIdx": 4,
			"setId": 2,
			"iconIdx": 4
		},
		{
			"icon": {
				"paths": [
					"M219.429 804.571q0 45.714-32 77.714t-77.714 32-77.714-32-32-77.714 32-77.714 77.714-32 77.714 32 32 77.714zM219.429 512q0 45.714-32 77.714t-77.714 32-77.714-32-32-77.714 32-77.714 77.714-32 77.714 32 32 77.714zM1024 749.714v109.714q0 7.429-5.429 12.857t-12.857 5.429h-694.857q-7.429 0-12.857-5.429t-5.429-12.857v-109.714q0-7.429 5.429-12.857t12.857-5.429h694.857q7.429 0 12.857 5.429t5.429 12.857zM219.429 219.429q0 45.714-32 77.714t-77.714 32-77.714-32-32-77.714 32-77.714 77.714-32 77.714 32 32 77.714zM1024 457.143v109.714q0 7.429-5.429 12.857t-12.857 5.429h-694.857q-7.429 0-12.857-5.429t-5.429-12.857v-109.714q0-7.429 5.429-12.857t12.857-5.429h694.857q7.429 0 12.857 5.429t5.429 12.857zM1024 164.571v109.714q0 7.429-5.429 12.857t-12.857 5.429h-694.857q-7.429 0-12.857-5.429t-5.429-12.857v-109.714q0-7.429 5.429-12.857t12.857-5.429h694.857q7.429 0 12.857 5.429t5.429 12.857z"
				],
				"attrs": [],
				"isMulticolor": false,
				"tags": [
					"list-ul"
				],
				"defaultCode": 61642,
				"grid": 14
			},
			"attrs": [],
			"properties": {
				"name": "editor-ul",
				"order": 49,
				"id": 179,
				"prevSize": 28,
				"code": 61642
			},
			"setIdx": 4,
			"setId": 2,
			"iconIdx": 5
		},
		{
			"icon": {
				"paths": [
					"M217.714 925.714q0 45.714-31.143 72t-77.429 26.286q-60.571 0-98.286-37.714l32.571-50.286q28 25.714 60.571 25.714 16.571 0 28.857-8.286t12.286-24.286q0-36.571-60-32l-14.857-32q4.571-5.714 18.571-24.857t24.286-30.857 21.143-22v-0.571q-9.143 0-27.714 0.571t-27.714 0.571v30.286h-60.571v-86.857h190.286v50.286l-54.286 65.714q29.143 6.857 46.286 28t17.143 50.286zM218.857 567.429v90.857h-206.857q-3.429-20.571-3.429-30.857 0-29.143 13.429-53.143t32.286-38.857 37.714-27.143 32.286-24.857 13.429-25.714q0-14.286-8.286-22t-22.571-7.714q-26.286 0-46.286 33.143l-48.571-33.714q13.714-29.143 40.857-45.429t60.286-16.286q41.714 0 70.286 23.714t28.571 64.286q0 28.571-19.429 52.286t-42.857 36.857-43.143 28.857-20.286 30h72.571v-34.286h60zM1024 749.714v109.714q0 7.429-5.429 12.857t-12.857 5.429h-694.857q-7.429 0-12.857-5.429t-5.429-12.857v-109.714q0-8 5.143-13.143t13.143-5.143h694.857q7.429 0 12.857 5.429t5.429 12.857zM219.429 236v56.571h-191.429v-56.571h61.143q0-23.429 0.286-69.714t0.286-69.143v-6.857h-1.143q-4.571 9.714-28.571 30.857l-40.571-43.429 77.714-72.571h60.571v230.857h61.714zM1024 457.143v109.714q0 7.429-5.429 12.857t-12.857 5.429h-694.857q-7.429 0-12.857-5.429t-5.429-12.857v-109.714q0-8 5.143-13.143t13.143-5.143h694.857q7.429 0 12.857 5.429t5.429 12.857zM1024 164.571v109.714q0 7.429-5.429 12.857t-12.857 5.429h-694.857q-7.429 0-12.857-5.429t-5.429-12.857v-109.714q0-7.429 5.429-12.857t12.857-5.429h694.857q7.429 0 12.857 5.429t5.429 12.857z"
				],
				"attrs": [],
				"isMulticolor": false,
				"tags": [
					"list-ol"
				],
				"defaultCode": 61643,
				"grid": 14
			},
			"attrs": [],
			"properties": {
				"name": "editor-ol",
				"order": 50,
				"id": 180,
				"prevSize": 28,
				"code": 61643
			},
			"setIdx": 4,
			"setId": 2,
			"iconIdx": 6
		},
		{
			"icon": {
				"paths": [
					"M438.857 182.857v402.286q0 59.429-23.143 113.429t-62.571 93.429-93.429 62.571-113.429 23.143h-36.571q-14.857 0-25.714-10.857t-10.857-25.714v-73.143q0-14.857 10.857-25.714t25.714-10.857h36.571q60.571 0 103.429-42.857t42.857-103.429v-18.286q0-22.857-16-38.857t-38.857-16h-128q-45.714 0-77.714-32t-32-77.714v-219.429q0-45.714 32-77.714t77.714-32h219.429q45.714 0 77.714 32t32 77.714zM950.857 182.857v402.286q0 59.429-23.143 113.429t-62.571 93.429-93.429 62.571-113.429 23.143h-36.571q-14.857 0-25.714-10.857t-10.857-25.714v-73.143q0-14.857 10.857-25.714t25.714-10.857h36.571q60.571 0 103.429-42.857t42.857-103.429v-18.286q0-22.857-16-38.857t-38.857-16h-128q-45.714 0-77.714-32t-32-77.714v-219.429q0-45.714 32-77.714t77.714-32h219.429q45.714 0 77.714 32t32 77.714z"
				],
				"width": 951,
				"attrs": [],
				"isMulticolor": false,
				"tags": [
					"quote-right"
				],
				"defaultCode": 61710,
				"grid": 14
			},
			"attrs": [],
			"properties": {
				"name": "editor-quote",
				"order": 53,
				"id": 243,
				"prevSize": 28,
				"code": 61710
			},
			"setIdx": 4,
			"setId": 2,
			"iconIdx": 7
		},
		{
			"icon": {
				"paths": [
					"M352.571 799.429l-28.571 28.571q-5.714 5.714-13.143 5.714t-13.143-5.714l-266.286-266.286q-5.714-5.714-5.714-13.143t5.714-13.143l266.286-266.286q5.714-5.714 13.143-5.714t13.143 5.714l28.571 28.571q5.714 5.714 5.714 13.143t-5.714 13.143l-224.571 224.571 224.571 224.571q5.714 5.714 5.714 13.143t-5.714 13.143zM690.286 189.714l-213.143 737.714q-2.286 7.429-8.857 11.143t-13.429 1.429l-35.429-9.714q-7.429-2.286-11.143-8.857t-1.429-14l213.143-737.714q2.286-7.429 8.857-11.143t13.429-1.429l35.429 9.714q7.429 2.286 11.143 8.857t1.429 14zM1065.714 561.714l-266.286 266.286q-5.714 5.714-13.143 5.714t-13.143-5.714l-28.571-28.571q-5.714-5.714-5.714-13.143t5.714-13.143l224.571-224.571-224.571-224.571q-5.714-5.714-5.714-13.143t5.714-13.143l28.571-28.571q5.714-5.714 13.143-5.714t13.143 5.714l266.286 266.286q5.714 5.714 5.714 13.143t-5.714 13.143z"
				],
				"width": 1097,
				"attrs": [],
				"isMulticolor": false,
				"tags": [
					"code"
				],
				"defaultCode": 61729,
				"grid": 14
			},
			"attrs": [],
			"properties": {
				"name": "editor-code",
				"order": 52,
				"id": 258,
				"prevSize": 28,
				"code": 61729
			},
			"setIdx": 4,
			"setId": 2,
			"iconIdx": 8
		},
		{
			"icon": {
				"paths": [
					"M512.571 782.286v95.429h-141.714l-90.857-144-13.714-24q-4.571-5.143-6.286-12h-1.714l-5.143 12q-5.714 11.429-14.286 25.143l-88.571 142.857h-147.429v-95.429h73.143l112.571-166.286-105.714-155.429h-78.286v-96h157.714l79.429 130.286q1.143 2.286 13.143 24 4.571 5.143 6.286 12h1.714q1.714-5.143 6.286-12l14.286-24 80-130.286h146.857v96h-71.429l-105.143 152.571 116.571 169.143h62.286zM876.571 394.286v117.714h-293.714l-1.714-15.429q-2.286-16-2.286-26.286 0-36.571 14.857-66.857t37.143-49.429 48-37.143 48-31.143 37.143-30.857 14.857-36.571q0-21.714-16.857-35.714t-40.286-14q-29.143 0-55.429 22.286-8 6.286-20.571 21.714l-60-52.571q14.857-21.143 36-37.714 47.429-37.143 107.429-37.143 62.857 0 101.714 34t38.857 90.571q0 32-14 58.857t-35.429 43.714-46.571 33.429-46.857 28.857-37.429 29.429-17.429 36h132.571v-45.714h72z"
				],
				"attrs": [],
				"isMulticolor": false,
				"tags": [
					"superscript"
				],
				"defaultCode": 61739,
				"grid": 14
			},
			"attrs": [],
			"properties": {
				"name": "editor-script",
				"order": 51,
				"id": 268,
				"prevSize": 28,
				"code": 61739
			},
			"setIdx": 4,
			"setId": 2,
			"iconIdx": 9
		},
		{
			"icon": {
				"paths": [
					"M554.857 710.857v120.571q0 38.286-22.286 38.286-13.143 0-25.714-12.571v-172q12.571-12.571 25.714-12.571 22.286 0 22.286 38.286zM748 711.429v26.286h-51.429v-26.286q0-38.857 25.714-38.857t25.714 38.857zM196 586.857h61.143v-53.714h-178.286v53.714h60v325.143h57.143v-325.143zM360.571 912h50.857v-282.286h-50.857v216q-17.143 24-32.571 24-10.286 0-12-12-0.571-1.714-0.571-20v-208h-50.857v223.429q0 28 4.571 41.714 6.857 21.143 33.143 21.143 27.429 0 58.286-34.857v30.857zM605.714 827.429v-112.571q0-41.714-5.143-56.571-9.714-32-40.571-32-28.571 0-53.143 30.857v-124h-50.857v378.857h50.857v-27.429q25.714 31.429 53.143 31.429 30.857 0 40.571-31.429 5.143-15.429 5.143-57.143zM798.857 821.714v-7.429h-52q0 29.143-1.143 34.857-4 20.571-22.857 20.571-26.286 0-26.286-39.429v-49.714h102.286v-58.857q0-45.143-15.429-66.286-22.286-29.143-60.571-29.143-38.857 0-61.143 29.143-16 21.143-16 66.286v98.857q0 45.143 16.571 66.286 22.286 29.143 61.714 29.143 41.143 0 61.714-30.286 10.286-15.429 12-30.857 1.143-5.143 1.143-33.143zM451.429 300v-120q0-39.429-24.571-39.429t-24.571 39.429v120q0 40 24.571 40t24.571-40zM862.286 729.143q0 133.714-14.857 200-8 33.714-33.143 56.571t-58.286 26.286q-105.143 12-317.143 12t-317.143-12q-33.143-3.429-58.571-26.286t-32.857-56.571q-14.857-64-14.857-200 0-133.714 14.857-200 8-33.714 33.143-56.571t58.857-26.857q104.571-11.429 316.571-11.429t317.143 11.429q33.143 4 58.571 26.857t32.857 56.571q14.857 64 14.857 200zM292 0h58.286l-69.143 228v154.857h-57.143v-154.857q-8-42.286-34.857-121.143-21.143-58.857-37.143-106.857h60.571l40.571 150.286zM503.429 190.286v100q0 46.286-16 67.429-21.143 29.143-60.571 29.143-38.286 0-60-29.143-16-21.714-16-67.429v-100q0-45.714 16-66.857 21.714-29.143 60-29.143 39.429 0 60.571 29.143 16 21.143 16 66.857zM694.857 97.714v285.143h-52v-31.429q-30.286 35.429-58.857 35.429-26.286 0-33.714-21.143-4.571-13.714-4.571-42.857v-225.143h52v209.714q0 18.857 0.571 20 1.714 12.571 12 12.571 15.429 0 32.571-24.571v-217.714h52z"
				],
				"attrs": [],
				"isMulticolor": false,
				"tags": [
					"youtube"
				],
				"defaultCode": 61799,
				"grid": 14
			},
			"attrs": [],
			"properties": {
				"name": "editor-youtube",
				"order": 56,
				"id": 324,
				"prevSize": 28,
				"code": 61799
			},
			"setIdx": 4,
			"setId": 2,
			"iconIdx": 10
		},
		{
			"icon": {
				"paths": [
					"M716.571 364q9.143-48.571-12-75.429-29.714-37.143-106.857-25.714-9.714 1.714-23.429 7.143t-32.857 17.429-36.857 27.714-34 40-25.429 52.286q45.714-4 64.857 9.143t15.143 56.571q-2.857 29.714-29.714 81.714-24.571 44.571-40.571 56.571-25.143 18.286-49.714-8-13.143-13.714-21.429-36.857t-10.857-41.714-5.714-48-4.857-40.857q-13.143-73.714-19.429-93.714-6.857-21.143-20.286-39.429t-28.857-22.857q-32.571-9.143-72.571 14.286-30.857 18.286-78 60.571t-70 58.286v4q9.143 4.571 14.571 14.857t12.286 11.429q12 1.714 31.143-4.857t33.143-6 23.714 17.143q6.286 10.286 10.571 22t8.571 27.429 7.143 23.143q9.714 26.286 30.286 106.857 20.571 83.429 32.571 112.571 24 56.571 58.857 71.429 24.571 6.857 48.571 0.857t43.429-18q74.857-44 142.857-135.429 59.429-79.429 98.571-167.143t47.143-129.429zM877.714 237.714v548.571q0 68-48.286 116.286t-116.286 48.286h-548.571q-68 0-116.286-48.286t-48.286-116.286v-548.571q0-68 48.286-116.286t116.286-48.286h548.571q68 0 116.286 48.286t48.286 116.286z"
				],
				"attrs": [],
				"isMulticolor": false,
				"tags": [
					"vimeo-square"
				],
				"defaultCode": 61844,
				"grid": 14
			},
			"attrs": [],
			"properties": {
				"name": "editor-vimeo",
				"order": 54,
				"id": 366,
				"prevSize": 28,
				"code": 61844
			},
			"setIdx": 4,
			"setId": 2,
			"iconIdx": 11
		},
		{
			"icon": {
				"paths": [
					"M838.857 217.143q16 16 27.429 43.429t11.429 50.286v658.286q0 22.857-16 38.857t-38.857 16h-768q-22.857 0-38.857-16t-16-38.857v-914.286q0-22.857 16-38.857t38.857-16h512q22.857 0 50.286 11.429t43.429 27.429zM585.143 77.714v214.857h214.857q-5.714-16.571-12.571-23.429l-178.857-178.857q-6.857-6.857-23.429-12.571zM804.571 950.857v-585.143h-237.714q-22.857 0-38.857-16t-16-38.857v-237.714h-438.857v877.714h731.429zM731.429 694.857v182.857h-585.143v-109.714l109.714-109.714 73.143 73.143 219.429-219.429zM256 585.143q-45.714 0-77.714-32t-32-77.714 32-77.714 77.714-32 77.714 32 32 77.714-32 77.714-77.714 32z"
				],
				"attrs": [],
				"isMulticolor": false,
				"tags": [
					"file-image-o",
					"file-photo-o",
					"file-picture-o"
				],
				"defaultCode": 61893,
				"grid": 14
			},
			"attrs": [],
			"properties": {
				"name": "editor-image",
				"order": 57,
				"id": 412,
				"prevSize": 28,
				"code": 61893
			},
			"setIdx": 4,
			"setId": 2,
			"iconIdx": 12
		},
		{
			"icon": {
				"paths": [
					"M961.143 950.857q-25.143 0-75.714-2t-76.286-2q-25.143 0-75.429 2t-75.429 2q-13.714 0-21.143-11.714t-7.429-26q0-17.714 9.714-26.286t22.286-9.714 29.143-4 25.714-8.571q18.857-12 18.857-80l-0.571-223.429q0-12-0.571-17.714-7.429-2.286-28.571-2.286h-385.714q-21.714 0-29.143 2.286-0.571 5.714-0.571 17.714l-0.571 212q0 81.143 21.143 93.714 9.143 5.714 27.429 7.429t32.571 2 25.714 8.571 11.429 26q0 14.857-7.143 27.429t-20.857 12.571q-26.857 0-79.714-2t-79.143-2q-24.571 0-73.143 2t-72.571 2q-13.143 0-20.286-12t-7.143-25.714q0-17.143 8.857-25.714t20.571-10 27.143-4.286 24-8.571q18.857-13.143 18.857-81.714l-0.571-32.571v-464.571q0-1.714 0.286-14.857t0-20.857-0.857-22-2-24-3.714-20.857-6.286-18-9.143-10.286q-8.571-5.714-25.714-6.857t-30.286-1.143-23.429-8-10.286-25.714q0-14.857 6.857-27.429t20.571-12.571q26.286 0 79.143 2t79.143 2q24 0 72.286-2t72.286-2q14.286 0 21.429 12.571t7.143 27.429q0 17.143-9.714 24.857t-22 8.286-28.286 2.286-24.571 7.429q-20 12-20 91.429l0.571 182.857q0 12 0.571 18.286 7.429 1.714 22.286 1.714h399.429q14.286 0 21.714-1.714 0.571-6.286 0.571-18.286l0.571-182.857q0-79.429-20-91.429-10.286-6.286-33.429-7.143t-37.714-7.429-14.571-28.286q0-14.857 7.143-27.429t21.429-12.571q25.143 0 75.429 2t75.429 2q24.571 0 73.714-2t73.714-2q14.286 0 21.429 12.571t7.143 27.429q0 17.143-10 25.143t-22.857 8.286-29.429 1.714-25.143 7.143q-20 13.143-20 92l0.571 538.857q0 68 19.429 80 9.143 5.714 26.286 7.714t30.571 2.571 23.714 8.857 10.286 25.429q0 14.857-6.857 27.429t-20.571 12.571z"
				],
				"attrs": [],
				"isMulticolor": false,
				"tags": [
					"header"
				],
				"defaultCode": 61916,
				"grid": 14
			},
			"attrs": [],
			"properties": {
				"name": "editor-header",
				"order": 58,
				"id": 434,
				"prevSize": 28,
				"code": 61916
			},
			"setIdx": 4,
			"setId": 2,
			"iconIdx": 13
		},
		{
			"icon": {
				"paths": [
					"M585.143 621.714q0 14.857-10.857 25.714l-256 256q-10.857 10.857-25.714 10.857t-25.714-10.857l-256-256q-10.857-10.857-10.857-25.714t10.857-25.714 25.714-10.857h512q14.857 0 25.714 10.857t10.857 25.714zM585.143 402.286q0 14.857-10.857 25.714t-25.714 10.857h-512q-14.857 0-25.714-10.857t-10.857-25.714 10.857-25.714l256-256q10.857-10.857 25.714-10.857t25.714 10.857l256 256q10.857 10.857 10.857 25.714z"
				],
				"width": 585,
				"attrs": [],
				"isMulticolor": false,
				"tags": [
					"sort",
					"unsorted"
				],
				"defaultCode": 61660,
				"grid": 14
			},
			"attrs": [],
			"properties": {
				"id": 195,
				"order": 11,
				"prevSize": 28,
				"code": 61660,
				"name": "sort"
			},
			"setIdx": 4,
			"setId": 2,
			"iconIdx": 14
		},
		{
			"icon": {
				"paths": [
					"M877.714 512q0 89.143-34.857 170.286t-93.714 140-140 93.714-170.286 34.857q-98.286 0-186.857-41.429t-150.857-116.857q-4-5.714-3.714-12.857t4.857-11.714l78.286-78.857q5.714-5.143 14.286-5.143 9.143 1.143 13.143 6.857 41.714 54.286 102.286 84t128.571 29.714q59.429 0 113.429-23.143t93.429-62.571 62.571-93.429 23.143-113.429-23.143-113.429-62.571-93.429-93.429-62.571-113.429-23.143q-56 0-107.429 20.286t-91.429 58l78.286 78.857q17.714 17.143 8 39.429-9.714 22.857-33.714 22.857h-256q-14.857 0-25.714-10.857t-10.857-25.714v-256q0-24 22.857-33.714 22.286-9.714 39.429 8l74.286 73.714q61.143-57.714 139.714-89.429t162.571-31.714q89.143 0 170.286 34.857t140 93.714 93.714 140 34.857 170.286z"
				],
				"attrs": [],
				"isMulticolor": false,
				"tags": [
					"rotate-left",
					"undo"
				],
				"defaultCode": 61666,
				"grid": 14
			},
			"attrs": [],
			"properties": {
				"id": 200,
				"order": 13,
				"prevSize": 28,
				"code": 61666,
				"name": "rotate-left"
			},
			"setIdx": 4,
			"setId": 2,
			"iconIdx": 15
		},
		{
			"icon": {
				"paths": [
					"M680.571 233.143h101.143l-41.143-124.571-6.857-26.857q-1.143-9.143-1.143-11.429h-2.286l-1.714 11.429q0 0.571-2 10.286t-4.286 16.571zM420.571 822.857q0 6.857-5.714 13.714l-182.286 182.286q-5.714 5.143-13.143 5.143-6.857 0-13.143-5.143l-182.857-182.857q-8.571-9.143-4-20 4.571-11.429 17.143-11.429h109.714v-786.286q0-8 5.143-13.143t13.143-5.143h109.714q8 0 13.143 5.143t5.143 13.143v786.286h109.714q8 0 13.143 5.143t5.143 13.143zM898.286 890.857v133.143h-333.714v-51.429l210.857-302.286q6.857-10.286 12-15.429l6.286-5.143v-1.714q-1.143 0-3.714 0.286t-4.286 0.286q-6.857 1.714-17.143 1.714h-132.571v65.714h-68.571v-130.857h324v50.857l-210.857 302.857q-3.429 4.571-12 14.857l-6.286 6.286v1.143l8-1.143q5.143-1.143 17.143-1.143h141.714v-68h69.143zM949.143 378.286v60.571h-164.571v-60.571h42.857l-26.857-82.286h-138.857l-26.857 82.286h42.857v60.571h-164v-60.571h40l131.429-378.286h92.571l131.429 378.286h40z"
				],
				"width": 951,
				"attrs": [],
				"isMulticolor": false,
				"tags": [
					"sort-alpha-asc"
				],
				"defaultCode": 61789,
				"grid": 14
			},
			"attrs": [],
			"properties": {
				"id": 314,
				"order": 8,
				"prevSize": 28,
				"code": 61789,
				"name": "sort-alpha-asc"
			},
			"setIdx": 4,
			"setId": 2,
			"iconIdx": 16
		},
		{
			"icon": {
				"paths": [
					"M420.571 822.857q0 6.857-5.714 13.714l-182.286 182.286q-5.714 5.143-13.143 5.143-6.857 0-13.143-5.143l-182.857-182.857q-8.571-9.143-4-20 4.571-11.429 17.143-11.429h109.714v-786.286q0-8 5.143-13.143t13.143-5.143h109.714q8 0 13.143 5.143t5.143 13.143v786.286h109.714q8 0 13.143 5.143t5.143 13.143zM1024 896v109.714q0 8-5.143 13.143t-13.143 5.143h-475.429q-8 0-13.143-5.143t-5.143-13.143v-109.714q0-8 5.143-13.143t13.143-5.143h475.429q8 0 13.143 5.143t5.143 13.143zM914.286 603.429v109.714q0 8-5.143 13.143t-13.143 5.143h-365.714q-8 0-13.143-5.143t-5.143-13.143v-109.714q0-8 5.143-13.143t13.143-5.143h365.714q8 0 13.143 5.143t5.143 13.143zM804.571 310.857v109.714q0 8-5.143 13.143t-13.143 5.143h-256q-8 0-13.143-5.143t-5.143-13.143v-109.714q0-8 5.143-13.143t13.143-5.143h256q8 0 13.143 5.143t5.143 13.143zM694.857 18.286v109.714q0 8-5.143 13.143t-13.143 5.143h-146.286q-8 0-13.143-5.143t-5.143-13.143v-109.714q0-8 5.143-13.143t13.143-5.143h146.286q8 0 13.143 5.143t5.143 13.143z"
				],
				"attrs": [],
				"isMulticolor": false,
				"tags": [
					"sort-amount-asc"
				],
				"defaultCode": 61792,
				"grid": 14
			},
			"attrs": [],
			"properties": {
				"id": 316,
				"order": 9,
				"prevSize": 28,
				"code": 61792,
				"name": "sort-amount-asc"
			},
			"setIdx": 4,
			"setId": 2,
			"iconIdx": 17
		},
		{
			"icon": {
				"paths": [
					"M512 310.857v256q0 8-5.143 13.143t-13.143 5.143h-182.857q-8 0-13.143-5.143t-5.143-13.143v-36.571q0-8 5.143-13.143t13.143-5.143h128v-201.143q0-8 5.143-13.143t13.143-5.143h36.571q8 0 13.143 5.143t5.143 13.143zM749.714 512q0-84.571-41.714-156t-113.143-113.143-156-41.714-156 41.714-113.143 113.143-41.714 156 41.714 156 113.143 113.143 156 41.714 156-41.714 113.143-113.143 41.714-156zM877.714 512q0 119.429-58.857 220.286t-159.714 159.714-220.286 58.857-220.286-58.857-159.714-159.714-58.857-220.286 58.857-220.286 159.714-159.714 220.286-58.857 220.286 58.857 159.714 159.714 58.857 220.286z"
				],
				"attrs": [],
				"isMulticolor": false,
				"tags": [
					"clock-o"
				],
				"defaultCode": 61463,
				"grid": 14
			},
			"attrs": [],
			"properties": {
				"id": 22,
				"order": 1,
				"prevSize": 28,
				"code": 61463,
				"name": "clock"
			},
			"setIdx": 4,
			"setId": 2,
			"iconIdx": 18
		},
		{
			"icon": {
				"paths": [
					"M380.571 274.857q-34.286 52.571-78.286 156-12.571-25.714-21.143-41.429t-23.143-36.286-29.143-32.286-36-20-46.571-8.286h-128q-8 0-13.143-5.143t-5.143-13.143v-109.714q0-8 5.143-13.143t13.143-5.143h128q142.857 0 234.286 128.571zM1024 731.429q0 8-5.143 13.143l-182.857 182.857q-5.143 5.143-13.143 5.143-7.429 0-12.857-5.429t-5.429-12.857v-109.714q-18.286 0-48.571 0.286t-46.286 0.571-41.714-0.571-40.571-2.857-36.571-6-36-10.571-33.143-16.286-33.714-22.857-31.429-30.571-32-39.714q33.714-53.143 77.714-156 12.571 25.714 21.143 41.429t23.143 36.286 29.143 32.286 36 20 46.571 8.286h146.286v-109.714q0-8 5.143-13.143t13.143-5.143q6.857 0 13.714 5.714l182.286 182.286q5.143 5.143 5.143 13.143zM1024 219.429q0 8-5.143 13.143l-182.857 182.857q-5.143 5.143-13.143 5.143-7.429 0-12.857-5.429t-5.429-12.857v-109.714h-146.286q-27.429 0-49.714 8.571t-39.429 25.714-29.143 35.143-25.714 44.286q-18.286 35.429-44.571 97.714-16.571 37.714-28.286 63.429t-30.857 60-36.571 57.143-42.286 47.429-51.429 39.143-60.857 24-73.143 9.429h-128q-8 0-13.143-5.143t-5.143-13.143v-109.714q0-8 5.143-13.143t13.143-5.143h128q27.429 0 49.714-8.571t39.429-25.714 29.143-35.143 25.714-44.286q18.286-35.429 44.571-97.714 16.571-37.714 28.286-63.429t30.857-60 36.571-57.143 42.286-47.429 51.429-39.143 60.857-24 73.143-9.429h146.286v-109.714q0-8 5.143-13.143t13.143-5.143q6.857 0 13.714 5.714l182.286 182.286q5.143 5.143 5.143 13.143z"
				],
				"attrs": [],
				"isMulticolor": false,
				"tags": [
					"random"
				],
				"defaultCode": 61556,
				"grid": 14
			},
			"attrs": [],
			"properties": {
				"id": 109,
				"order": 44,
				"prevSize": 28,
				"code": 61556,
				"name": "random"
			},
			"setIdx": 4,
			"setId": 2,
			"iconIdx": 19
		},
		{
			"icon": {
				"paths": [
					"M219.429 713.143v109.714q0 22.857-16 38.857t-38.857 16h-109.714q-22.857 0-38.857-16t-16-38.857v-109.714q0-22.857 16-38.857t38.857-16h109.714q22.857 0 38.857 16t16 38.857zM219.429 420.571v109.714q0 22.857-16 38.857t-38.857 16h-109.714q-22.857 0-38.857-16t-16-38.857v-109.714q0-22.857 16-38.857t38.857-16h109.714q22.857 0 38.857 16t16 38.857zM219.429 128v109.714q0 22.857-16 38.857t-38.857 16h-109.714q-22.857 0-38.857-16t-16-38.857v-109.714q0-22.857 16-38.857t38.857-16h109.714q22.857 0 38.857 16t16 38.857z"
				],
				"width": 219,
				"attrs": [],
				"isMulticolor": false,
				"tags": [
					"ellipsis-v"
				],
				"defaultCode": 61762,
				"grid": 14
			},
			"attrs": [],
			"properties": {
				"id": 288,
				"order": 2,
				"prevSize": 28,
				"code": 61762,
				"name": "ellipsis-v"
			},
			"setIdx": 4,
			"setId": 2,
			"iconIdx": 20
		},
		{
			"icon": {
				"paths": [
					"M292.571 713.143v109.714q0 22.857-16 38.857t-38.857 16h-182.857q-22.857 0-38.857-16t-16-38.857v-109.714q0-22.857 16-38.857t38.857-16h182.857q22.857 0 38.857 16t16 38.857zM292.571 420.571v109.714q0 22.857-16 38.857t-38.857 16h-182.857q-22.857 0-38.857-16t-16-38.857v-109.714q0-22.857 16-38.857t38.857-16h182.857q22.857 0 38.857 16t16 38.857zM658.286 713.143v109.714q0 22.857-16 38.857t-38.857 16h-182.857q-22.857 0-38.857-16t-16-38.857v-109.714q0-22.857 16-38.857t38.857-16h182.857q22.857 0 38.857 16t16 38.857zM292.571 128v109.714q0 22.857-16 38.857t-38.857 16h-182.857q-22.857 0-38.857-16t-16-38.857v-109.714q0-22.857 16-38.857t38.857-16h182.857q22.857 0 38.857 16t16 38.857zM658.286 420.571v109.714q0 22.857-16 38.857t-38.857 16h-182.857q-22.857 0-38.857-16t-16-38.857v-109.714q0-22.857 16-38.857t38.857-16h182.857q22.857 0 38.857 16t16 38.857zM1024 713.143v109.714q0 22.857-16 38.857t-38.857 16h-182.857q-22.857 0-38.857-16t-16-38.857v-109.714q0-22.857 16-38.857t38.857-16h182.857q22.857 0 38.857 16t16 38.857zM658.286 128v109.714q0 22.857-16 38.857t-38.857 16h-182.857q-22.857 0-38.857-16t-16-38.857v-109.714q0-22.857 16-38.857t38.857-16h182.857q22.857 0 38.857 16t16 38.857zM1024 420.571v109.714q0 22.857-16 38.857t-38.857 16h-182.857q-22.857 0-38.857-16t-16-38.857v-109.714q0-22.857 16-38.857t38.857-16h182.857q22.857 0 38.857 16t16 38.857zM1024 128v109.714q0 22.857-16 38.857t-38.857 16h-182.857q-22.857 0-38.857-16t-16-38.857v-109.714q0-22.857 16-38.857t38.857-16h182.857q22.857 0 38.857 16t16 38.857z"
				],
				"attrs": [],
				"isMulticolor": false,
				"tags": [
					"th"
				],
				"defaultCode": 61450,
				"grid": 14
			},
			"attrs": [],
			"properties": {
				"id": 10,
				"order": 3,
				"prevSize": 28,
				"code": 61450,
				"name": "th"
			},
			"setIdx": 4,
			"setId": 2,
			"iconIdx": 21
		},
		{
			"icon": {
				"paths": [
					"M877.714 768v73.143q0 14.857-10.857 25.714t-25.714 10.857h-804.571q-14.857 0-25.714-10.857t-10.857-25.714v-73.143q0-14.857 10.857-25.714t25.714-10.857h804.571q14.857 0 25.714 10.857t10.857 25.714zM877.714 475.429v73.143q0 14.857-10.857 25.714t-25.714 10.857h-804.571q-14.857 0-25.714-10.857t-10.857-25.714v-73.143q0-14.857 10.857-25.714t25.714-10.857h804.571q14.857 0 25.714 10.857t10.857 25.714zM877.714 182.857v73.143q0 14.857-10.857 25.714t-25.714 10.857h-804.571q-14.857 0-25.714-10.857t-10.857-25.714v-73.143q0-14.857 10.857-25.714t25.714-10.857h804.571q14.857 0 25.714 10.857t10.857 25.714z"
				],
				"attrs": [],
				"isMulticolor": false,
				"tags": [
					"bars",
					"navicon",
					"reorder"
				],
				"defaultCode": 61641,
				"grid": 14
			},
			"attrs": [],
			"properties": {
				"id": 177,
				"order": 4,
				"prevSize": 28,
				"code": 61641,
				"name": "bars"
			},
			"setIdx": 4,
			"setId": 2,
			"iconIdx": 22
		},
		{
			"icon": {
				"paths": [
					"M676.571 512q0 14.857-10.857 25.714l-310.857 310.857q-10.857 10.857-25.714 10.857t-25.714-10.857-10.857-25.714v-164.571h-256q-14.857 0-25.714-10.857t-10.857-25.714v-219.429q0-14.857 10.857-25.714t25.714-10.857h256v-164.571q0-14.857 10.857-25.714t25.714-10.857 25.714 10.857l310.857 310.857q10.857 10.857 10.857 25.714zM877.714 310.857v402.286q0 68-48.286 116.286t-116.286 48.286h-182.857q-7.429 0-12.857-5.429t-5.429-12.857q0-2.286-0.571-11.429t-0.286-15.143 1.714-13.429 5.714-11.143 11.714-3.714h182.857q37.714 0 64.571-26.857t26.857-64.571v-402.286q0-37.714-26.857-64.571t-64.571-26.857h-178.286t-6.571-0.571-6.571-1.714-4.571-3.143-4-5.143-1.143-7.714q0-2.286-0.571-11.429t-0.286-15.143 1.714-13.429 5.714-11.143 11.714-3.714h182.857q68 0 116.286 48.286t48.286 116.286z"
				],
				"attrs": [
					{}
				],
				"isMulticolor": false,
				"tags": [
					"sign-in"
				],
				"grid": 14
			},
			"attrs": [
				{}
			],
			"properties": {
				"order": 5,
				"id": 0,
				"prevSize": 28,
				"name": "sign-in",
				"code": 58884
			},
			"setIdx": 4,
			"setId": 2,
			"iconIdx": 23
		},
		{
			"icon": {
				"paths": [
					"M365.714 512v292.571h-146.286v-292.571h146.286zM585.143 219.429v585.143h-146.286v-585.143h146.286zM1170.286 877.714v73.143h-1170.286v-877.714h73.143v804.571h1097.143zM804.571 365.714v438.857h-146.286v-438.857h146.286zM1024 146.286v658.286h-146.286v-658.286h146.286z"
				],
				"width": 1170,
				"attrs": [],
				"isMulticolor": false,
				"tags": [
					"bar-chart",
					"bar-chart-o"
				],
				"defaultCode": 61568,
				"grid": 14
			},
			"attrs": [],
			"properties": {
				"id": 120,
				"order": 6,
				"prevSize": 28,
				"code": 61458,
				"name": "chart"
			},
			"setIdx": 4,
			"setId": 2,
			"iconIdx": 24
		},
		{
			"icon": {
				"paths": [
					"M950.857 365.714q30.286 0 51.714 21.429t21.429 51.714-21.429 51.714-51.714 21.429v219.429q0 29.714-21.714 51.429t-51.429 21.714q-238.286-198.286-464-217.143-33.143 10.857-52 37.714t-17.714 57.429 22.857 52.857q-11.429 18.857-13.143 37.429t3.429 33.143 19.143 31.429 27.429 28.571 35.143 28.857q-16.571 33.143-63.714 47.429t-96.286 6.571-75.429-31.714q-4-13.143-16.857-50t-18.286-54-13.143-50.857-8.571-57.714 2-56.286 12.571-63.143h-69.714q-37.714 0-64.571-26.857t-26.857-64.571v-109.714q0-37.714 26.857-64.571t64.571-26.857h274.286q248.571 0 512-219.429 29.714 0 51.429 21.714t21.714 51.429v219.429zM877.714 710.857v-545.143q-225.143 172.571-438.857 196v154.286q215.429 24 438.857 194.857z"
				],
				"attrs": [],
				"isMulticolor": false,
				"tags": [
					"bullhorn"
				],
				"defaultCode": 61601,
				"grid": 14
			},
			"attrs": [],
			"properties": {
				"id": 151,
				"order": 7,
				"prevSize": 28,
				"code": 61601,
				"name": "bullhorn"
			},
			"setIdx": 4,
			"setId": 2,
			"iconIdx": 25
		},
		{
			"icon": {
				"paths": [
					"M5.714 772.571q0-2.286 1.714-15.429t2.286-21.143q0.571-4.571-1.714-12.286t-1.714-11.143q1.143-6.286 4.571-12t9.429-13.429 9.429-13.429q13.143-21.714 25.714-52.286t17.143-52.286q1.714-5.714 0.286-17.143t-0.286-16q1.714-6.286 9.714-16t9.714-13.143q12-20.571 24-52.571t14.286-51.429q0.571-5.143-1.429-18.286t0.286-16q2.286-7.429 12.571-17.429t12.571-12.857q10.857-14.857 24.286-48.286t15.714-55.143q0.571-4.571-1.714-14.571t-1.143-15.143q1.143-4.571 5.143-10.286t10.286-13.143 9.714-12q4.571-6.857 9.429-17.429t8.571-20 9.143-20.571 11.143-18.286 15.143-13.429 20.571-6.571 27.143 3.143l-0.571 1.714q21.714-5.143 29.143-5.143h434.857q42.286 0 65.143 32t10.286 74.286l-156.571 517.714q-20.571 68-40.857 87.714t-73.429 19.714h-496.571q-15.429 0-21.714 8.571-6.286 9.143-0.571 24.571 13.714 40 82.286 40h527.429q16.571 0 32-8.857t20-23.714l171.429-564q4-12.571 2.857-32.571 21.714 8.571 33.714 24.571 22.857 32.571 10.286 73.714l-157.143 517.714q-10.857 36.571-43.714 61.429t-70 24.857h-527.429q-44 0-84.857-30.571t-56.857-75.143q-13.714-38.286-1.143-72.571zM281.143 420.571q-2.286 7.429 1.143 12.857t11.429 5.429h347.429q7.429 0 14.571-5.429t9.429-12.857l12-36.571q2.286-7.429-1.143-12.857t-11.429-5.429h-347.429q-7.429 0-14.571 5.429t-9.429 12.857zM328.571 274.286q-2.286 7.429 1.143 12.857t11.429 5.429h347.429q7.429 0 14.571-5.429t9.429-12.857l12-36.571q2.286-7.429-1.143-12.857t-11.429-5.429h-347.429q-7.429 0-14.571 5.429t-9.429 12.857z"
				],
				"width": 951,
				"attrs": [],
				"isMulticolor": false,
				"tags": [
					"book"
				],
				"defaultCode": 61485,
				"grid": 14
			},
			"attrs": [],
			"properties": {
				"id": 42,
				"order": 8,
				"prevSize": 28,
				"code": 61485,
				"name": "book"
			},
			"setIdx": 4,
			"setId": 2,
			"iconIdx": 26
		},
		{
			"icon": {
				"paths": [
					"M0 822.857v-329.143q0-22.857 16-38.857t38.857-16h384v-109.714q0-105.714 75.143-180.857t180.857-75.143 180.857 75.143 75.143 180.857v146.286q0 14.857-10.857 25.714t-25.714 10.857h-36.571q-14.857 0-25.714-10.857t-10.857-25.714v-146.286q0-60.571-42.857-103.429t-103.429-42.857-103.429 42.857-42.857 103.429v109.714h54.857q22.857 0 38.857 16t16 38.857v329.143q0 22.857-16 38.857t-38.857 16h-548.571q-22.857 0-38.857-16t-16-38.857z"
				],
				"width": 951,
				"attrs": [],
				"isMulticolor": false,
				"tags": [
					"unlock"
				],
				"defaultCode": 61596,
				"grid": 14
			},
			"attrs": [],
			"properties": {
				"id": 147,
				"order": 9,
				"prevSize": 28,
				"code": 61596,
				"name": "unlock"
			},
			"setIdx": 4,
			"setId": 2,
			"iconIdx": 27
		},
		{
			"icon": {
				"paths": [
					"M55.143 314.286q-1.429-8.571 3.143-16 91.429-152 265.143-152 45.714 0 92 17.714t83.429 47.429 60.571 72.857 23.429 90.571q0 30.857-8.857 57.714t-20 43.714-31.429 34-32.857 24.857-34.857 20.286q-23.429 13.143-39.143 37.143t-15.714 38.286q0 9.714-6.857 18.571t-16 8.857h-137.143q-8.571 0-14.571-10.571t-6-21.429v-25.714q0-47.429 37.143-89.429t81.714-62q33.714-15.429 48-32t14.286-43.429q0-24-26.571-42.286t-61.429-18.286q-37.143 0-61.714 16.571-20 14.286-61.143 65.714-7.429 9.143-17.714 9.143-6.857 0-14.286-4.571l-93.714-71.429q-7.429-5.714-8.857-14.286zM219.429 854.857v-137.143q0-9.143 6.857-16t16-6.857h137.143q9.143 0 16 6.857t6.857 16v137.143q0 9.143-6.857 16t-16 6.857h-137.143q-9.143 0-16-6.857t-6.857-16z"
				],
				"width": 585,
				"attrs": [],
				"isMulticolor": false,
				"tags": [
					"question"
				],
				"defaultCode": 61736,
				"grid": 14
			},
			"attrs": [],
			"properties": {
				"id": 264,
				"order": 10,
				"prevSize": 28,
				"code": 61736,
				"name": "question"
			},
			"setIdx": 4,
			"setId": 2,
			"iconIdx": 28
		},
		{
			"icon": {
				"paths": [
					"M0 841.143v-73.143q0-14.857 10.857-25.714t25.714-10.857h36.571v-219.429h-36.571q-14.857 0-25.714-10.857t-10.857-25.714v-73.143q0-14.857 10.857-25.714t25.714-10.857h219.429q14.857 0 25.714 10.857t10.857 25.714v329.143h36.571q14.857 0 25.714 10.857t10.857 25.714v73.143q0 14.857-10.857 25.714t-25.714 10.857h-292.571q-14.857 0-25.714-10.857t-10.857-25.714zM73.143 219.429v-109.714q0-14.857 10.857-25.714t25.714-10.857h146.286q14.857 0 25.714 10.857t10.857 25.714v109.714q0 14.857-10.857 25.714t-25.714 10.857h-146.286q-14.857 0-25.714-10.857t-10.857-25.714z"
				],
				"width": 366,
				"attrs": [],
				"isMulticolor": false,
				"tags": [
					"info"
				],
				"defaultCode": 61737,
				"grid": 14
			},
			"attrs": [],
			"properties": {
				"id": 265,
				"order": 11,
				"prevSize": 28,
				"code": 61737,
				"name": "info"
			},
			"setIdx": 4,
			"setId": 2,
			"iconIdx": 29
		},
		{
			"icon": {
				"paths": [
					"M56 109.714q-0.571-14.857 10-25.714t25.429-10.857h182.857q14.857 0 25.429 10.857t10 25.714l-16 438.857q-0.571 14.857-11.714 25.714t-26 10.857h-146.286q-14.857 0-26-10.857t-11.714-25.714zM73.143 841.143v-128q0-14.857 10.857-25.714t25.714-10.857h146.286q14.857 0 25.714 10.857t10.857 25.714v128q0 14.857-10.857 25.714t-25.714 10.857h-146.286q-14.857 0-25.714-10.857t-10.857-25.714z"
				],
				"width": 366,
				"attrs": [],
				"isMulticolor": false,
				"tags": [
					"exclamation"
				],
				"defaultCode": 61738,
				"grid": 14
			},
			"attrs": [],
			"properties": {
				"id": 266,
				"order": 12,
				"prevSize": 28,
				"code": 61738,
				"name": "exclamation"
			},
			"setIdx": 4,
			"setId": 2,
			"iconIdx": 30
		},
		{
			"icon": {
				"paths": [
					"M0 786.286v-548.571q0-68 48.286-116.286t116.286-48.286h548.571q68 0 116.286 48.286t48.286 116.286v548.571q0 68-48.286 116.286t-116.286 48.286h-548.571q-68 0-116.286-48.286t-48.286-116.286zM146.286 714.286q84.571 53.714 184 53.714 64 0 120-20.286t96-54.286 68.857-78.286 42.857-92.571 14-96.286q0-10.286-0.571-15.429 36-25.714 60-62.286-32 14.286-69.143 19.429 38.857-22.857 53.143-66.857-37.143 21.714-76.571 29.143-34.857-37.714-87.429-37.714-49.714 0-84.857 35.143t-35.143 84.857q0 16.571 2.857 27.429-73.714-4-138.286-37.143t-109.714-88.571q-16.571 28.571-16.571 60.571 0 65.143 52 100-26.857-0.571-57.143-14.857v1.143q0 42.857 28.571 76.286t70.286 41.429q-16.571 4.571-29.143 4.571-7.429 0-22.286-2.286 12 36 42.571 59.429t69.429 24q-66.286 51.429-149.143 51.429-14.857 0-28.571-1.714z"
				],
				"attrs": [],
				"isMulticolor": false,
				"tags": [
					"twitter-square"
				],
				"defaultCode": 61569,
				"grid": 14
			},
			"attrs": [],
			"properties": {
				"id": 121,
				"order": 14,
				"prevSize": 28,
				"code": 61569,
				"name": "twitter",
				"ligatures": ""
			},
			"setIdx": 4,
			"setId": 2,
			"iconIdx": 31
		},
		{
			"icon": {
				"paths": [
					"M0 574.286v-126.857q0-6.857 4.571-13.143t10.857-7.429l106.286-16q8-26.286 22.286-52.571-22.857-32.571-61.143-78.857-5.714-6.857-5.714-13.714 0-5.714 5.143-13.143 14.857-20.571 56.286-61.429t54-40.857q7.429 0 14.857 5.714l78.857 61.143q25.143-13.143 52-21.714 9.143-77.714 16.571-106.286 4-16 20.571-16h126.857q8 0 14 4.857t6.571 12.286l16 105.143q28 9.143 51.429 21.143l81.143-61.143q5.143-5.143 13.714-5.143 7.429 0 14.286 5.714 73.714 68 94.286 97.143 4 4.571 4 12.571 0 6.857-4.571 13.143-8.571 12-29.143 38t-30.857 40.286q14.857 28.571 23.429 56l104.571 16q7.429 1.143 12 7.143t4.571 13.429v126.857q0 6.857-4.571 13.143t-11.429 7.429l-105.714 16q-10.857 30.857-22.286 52 20 28.571 61.143 78.857 5.714 6.857 5.714 14.286t-5.143 13.143q-15.429 21.143-56.571 61.714t-53.714 40.571q-6.857 0-14.857-5.143l-78.857-61.714q-25.143 13.143-52 21.714-9.143 77.714-16.571 106.286-4 16-20.571 16h-126.857q-8 0-14-4.857t-6.571-12.286l-16-105.143q-28-9.143-51.429-21.143l-80.571 61.143q-5.714 5.143-14.286 5.143-8 0-14.286-6.286-72-65.143-94.286-96-4-5.714-4-13.143 0-6.857 4.571-13.143 8.571-12 29.143-38t30.857-40.286q-15.429-28.571-23.429-56.571l-104.571-15.429q-7.429-1.143-12-7.143t-4.571-13.429zM292.571 512q0 60.571 42.857 103.429t103.429 42.857 103.429-42.857 42.857-103.429-42.857-103.429-103.429-42.857-103.429 42.857-42.857 103.429z"
				],
				"attrs": [],
				"isMulticolor": false,
				"tags": [
					"gear",
					"cog"
				],
				"defaultCode": 61459,
				"grid": 14
			},
			"attrs": [],
			"properties": {
				"id": 18,
				"order": 15,
				"prevSize": 28,
				"code": 58885,
				"name": "gear",
				"ligatures": ""
			},
			"setIdx": 4,
			"setId": 2,
			"iconIdx": 32
		},
		{
			"icon": {
				"paths": [
					"M14.857 514q0.571-7.714 6.286-12.286l410.857-342.286q18.286-14.857 43.429-14.857t43.429 14.857l139.429 116.571v-111.429q0-8 5.143-13.143t13.143-5.143h109.714q8 0 13.143 5.143t5.143 13.143v233.143l125.143 104q5.714 4.571 6.286 12.286t-4 13.429l-35.429 42.286q-4.571 5.143-12 6.286h-1.714q-7.429 0-12-4l-395.429-329.714-395.429 329.714q-6.857 4.571-13.714 4-7.429-1.143-12-6.286l-35.429-42.286q-4.571-5.714-4-13.429zM146.286 841.143v-274.286q0-0.571 0.286-1.714t0.286-1.714l328.571-270.857 328.571 270.857q0.571 1.143 0.571 3.429v274.286q0 14.857-10.857 25.714t-25.714 10.857h-219.429v-219.429h-146.286v219.429h-219.429q-14.857 0-25.714-10.857t-10.857-25.714z"
				],
				"width": 951,
				"attrs": [],
				"isMulticolor": false,
				"tags": [
					"home"
				],
				"defaultCode": 61461,
				"grid": 14
			},
			"attrs": [],
			"properties": {
				"id": 20,
				"order": 38,
				"prevSize": 28,
				"code": 58886,
				"name": "home",
				"ligatures": ""
			},
			"setIdx": 4,
			"setId": 2,
			"iconIdx": 33
		},
		{
			"icon": {
				"paths": [
					"M0 512q0-89.143 34.857-170.286t93.714-140 140-93.714 170.286-34.857q84 0 162.571 31.714t139.714 89.429l74.286-73.714q16.571-17.714 40-8 22.286 9.714 22.286 33.714v256q0 14.857-10.857 25.714t-25.714 10.857h-256q-24 0-33.714-22.857-9.714-22.286 8-39.429l78.857-78.857q-84.571-78.286-199.429-78.286-59.429 0-113.429 23.143t-93.429 62.571-62.571 93.429-23.143 113.429 23.143 113.429 62.571 93.429 93.429 62.571 113.429 23.143q68 0 128.571-29.714t102.286-84q4-5.714 13.143-6.857 8 0 14.286 5.143l78.286 78.857q5.143 4.571 5.429 11.714t-4.286 12.857q-62.286 75.429-150.857 116.857t-186.857 41.429q-89.143 0-170.286-34.857t-140-93.714-93.714-140-34.857-170.286z"
				],
				"attrs": [],
				"isMulticolor": false,
				"tags": [
					"rotate-right",
					"repeat"
				],
				"defaultCode": 61470,
				"grid": 14
			},
			"attrs": [],
			"properties": {
				"id": 29,
				"order": 37,
				"prevSize": 28,
				"code": 58888,
				"name": "renew",
				"ligatures": ""
			},
			"setIdx": 4,
			"setId": 2,
			"iconIdx": 34
		},
		{
			"icon": {
				"paths": [
					"M0 822.857v-329.143q0-22.857 16-38.857t38.857-16h18.286v-109.714q0-105.143 75.429-180.571t180.571-75.429 180.571 75.429 75.429 180.571v109.714h18.286q22.857 0 38.857 16t16 38.857v329.143q0 22.857-16 38.857t-38.857 16h-548.571q-22.857 0-38.857-16t-16-38.857zM182.857 438.857h292.571v-109.714q0-60.571-42.857-103.429t-103.429-42.857-103.429 42.857-42.857 103.429v109.714z"
				],
				"width": 658,
				"attrs": [],
				"isMulticolor": false,
				"tags": [
					"lock"
				],
				"defaultCode": 61475,
				"grid": 14
			},
			"attrs": [],
			"properties": {
				"id": 32,
				"order": 35,
				"prevSize": 28,
				"code": 58889,
				"name": "lock",
				"ligatures": ""
			},
			"setIdx": 4,
			"setId": 2,
			"iconIdx": 35
		},
		{
			"icon": {
				"paths": [
					"M0 932.571v-841.143q0-14.857 9.429-20.571t22.571 1.714l758.857 421.714q13.143 7.429 13.143 17.714t-13.143 17.714l-758.857 421.714q-13.143 7.429-22.571 1.714t-9.429-20.571z"
				],
				"width": 805,
				"attrs": [],
				"isMulticolor": false,
				"tags": [
					"play"
				],
				"defaultCode": 61515,
				"grid": 14
			},
			"attrs": [],
			"properties": {
				"id": 71,
				"order": 33,
				"prevSize": 28,
				"code": 58890,
				"name": "play",
				"ligatures": ""
			},
			"setIdx": 4,
			"setId": 2,
			"iconIdx": 36
		},
		{
			"icon": {
				"paths": [
					"M0 914.286v-804.571q0-14.857 10.857-25.714t25.714-10.857h292.571q14.857 0 25.714 10.857t10.857 25.714v804.571q0 14.857-10.857 25.714t-25.714 10.857h-292.571q-14.857 0-25.714-10.857t-10.857-25.714zM512 914.286v-804.571q0-14.857 10.857-25.714t25.714-10.857h292.571q14.857 0 25.714 10.857t10.857 25.714v804.571q0 14.857-10.857 25.714t-25.714 10.857h-292.571q-14.857 0-25.714-10.857t-10.857-25.714z"
				],
				"attrs": [],
				"isMulticolor": false,
				"tags": [
					"pause"
				],
				"defaultCode": 61516,
				"grid": 14
			},
			"attrs": [],
			"properties": {
				"id": 72,
				"order": 31,
				"prevSize": 28,
				"code": 58891,
				"name": "pause",
				"ligatures": ""
			},
			"setIdx": 4,
			"setId": 2,
			"iconIdx": 37
		},
		{
			"icon": {
				"paths": [
					"M0 786.286v-548.571q0-68 48.286-116.286t116.286-48.286h548.571q68 0 116.286 48.286t48.286 116.286v548.571q0 68-48.286 116.286t-116.286 48.286h-109.714v-347.429h116l17.143-128h-133.143v-81.714q0-30.857 16-47.429t54.857-16.571l75.429-0.571v-118.286q-54.857-5.143-102.857-5.143-77.714 0-124.571 46t-46.857 128.857v94.857h-128v128h128v347.429h-310.857q-68 0-116.286-48.286t-48.286-116.286z"
				],
				"attrs": [],
				"isMulticolor": false,
				"tags": [
					"facebook-square"
				],
				"defaultCode": 61570,
				"grid": 14
			},
			"attrs": [],
			"properties": {
				"id": 122,
				"order": 30,
				"prevSize": 28,
				"code": 58895,
				"name": "facebook",
				"ligatures": ""
			},
			"setIdx": 4,
			"setId": 2,
			"iconIdx": 38
		},
		{
			"icon": {
				"paths": [
					"M0 786.286v-548.571q0-68 48.286-116.286t116.286-48.286h548.571q68 0 116.286 48.286t48.286 116.286v548.571q0 68-48.286 116.286t-116.286 48.286h-548.571q-68 0-116.286-48.286t-48.286-116.286zM157.714 701.143q0 24.571 10.571 44.286t27.714 32.286 39.429 21.143 44.286 12 43.714 3.429q34.286 0 68.857-8.857t64.857-26.286 49.143-47.143 18.857-66.857q0-28-11.429-51.143t-28-38-33.143-27.143-28-25.143-11.429-25.429 8.857-24.286 21.429-22.571 25.143-24 21.429-34 8.857-47.143q0-34.286-12.857-56.857t-41.429-51.714h47.429l50.286-36.571h-151.429q-48.571 0-92 18.286t-72.857 56-29.429 87.429q0 53.143 36.857 88.286t90.571 35.143q12.571 0 24.571-1.714-7.429 16.571-7.429 30.857 0 25.143 22.857 53.714-100 6.857-146.857 36-26.857 16.571-43.143 41.714t-16.286 54.286zM225.714 684.571q0-26.286 14.286-45.714t37.429-29.429 46.857-14.286 48.286-4.286q11.429 0 17.714 1.143 1.143 0.571 13.143 9.429t14.857 10.857 13.143 10.286 14 12.571 10.857 12.857 9.714 14.857 5.143 15.143 2.571 18q0 43.429-33.429 64.286t-79.714 20.857q-23.429 0-46-5.429t-43.143-16.286-33.143-30.286-12.571-44.571zM264 324q0-34.857 18.286-59.429t52.571-24.571q30.286 0 53.429 25.714t33.143 57.714 10 61.143q0 34.286-18.857 56.857t-52.571 22.571q-30.286 0-53.143-24.286t-32.857-55.143-10-60.571zM548.571 493.714h73.143v91.429h36.571v-91.429h73.143v-36.571h-73.143v-73.143h-36.571v73.143h-73.143v36.571z"
				],
				"attrs": [],
				"isMulticolor": false,
				"tags": [
					"google-plus-square"
				],
				"defaultCode": 61652,
				"grid": 14
			},
			"attrs": [],
			"properties": {
				"id": 187,
				"order": 27,
				"prevSize": 28,
				"code": 58897,
				"name": "googleplus",
				"ligatures": ""
			},
			"setIdx": 4,
			"setId": 2,
			"iconIdx": 39
		},
		{
			"icon": {
				"paths": [
					"M0 822.857v-329.143q0-22.857 16-38.857t38.857-16h18.286v-182.857q0-105.714 75.143-180.857t180.857-75.143 180.857 75.143 75.143 180.857q0 14.857-10.857 25.714t-25.714 10.857h-36.571q-14.857 0-25.714-10.857t-10.857-25.714q0-60.571-42.857-103.429t-103.429-42.857-103.429 42.857-42.857 103.429v182.857h420.571q22.857 0 38.857 16t16 38.857v329.143q0 22.857-16 38.857t-38.857 16h-548.571q-22.857 0-38.857-16t-16-38.857z"
				],
				"width": 658,
				"attrs": [],
				"isMulticolor": false,
				"tags": [
					"unlock-alt"
				],
				"defaultCode": 61758,
				"grid": 14
			},
			"attrs": [],
			"properties": {
				"id": 285,
				"order": 26,
				"prevSize": 28,
				"code": 58898,
				"name": "unlock2",
				"ligatures": ""
			},
			"setIdx": 4,
			"setId": 2,
			"iconIdx": 40
		},
		{
			"icon": {
				"paths": [
					"M0 292.571q0-13.143 12.571-17.714l640-201.143q2.286-0.571 5.714-0.571t5.714 0.571l640 201.143q12.571 4.571 12.571 17.714t-12.571 17.714l-640 201.143q-2.286 0.571-5.714 0.571t-5.714-0.571l-372.571-117.714q-24.571 19.429-40.571 63.714t-19.429 102q36 20.571 36 62.286 0 39.429-33.143 61.143l33.143 247.429q1.143 8-4.571 14.286-5.143 6.286-13.714 6.286h-109.714q-8.571 0-13.714-6.286-5.714-6.286-4.571-14.286l33.143-247.429q-33.143-21.714-33.143-61.143 0-41.714 37.143-63.429 6.286-118.286 56-188.571l-190.286-59.429q-12.571-4.571-12.571-17.714zM292.571 658.286l10.286-180.571 328 103.429q12.571 4 27.429 4t27.429-4l328-103.429 10.286 180.571q2.286 39.429-46.857 73.143t-134.286 53.429-184.571 19.714-184.571-19.714-134.286-53.429-46.857-73.143z"
				],
				"width": 1317,
				"attrs": [],
				"isMulticolor": false,
				"tags": [
					"mortar-board",
					"graduation-cap"
				],
				"defaultCode": 61853,
				"grid": 14
			},
			"attrs": [],
			"properties": {
				"id": 374,
				"order": 23,
				"prevSize": 28,
				"code": 58899,
				"name": "prof",
				"ligatures": ""
			},
			"setIdx": 4,
			"setId": 2,
			"iconIdx": 41
		},
		{
			"icon": {
				"paths": [
					"M507.429 676.571l66.286-66.286-86.857-86.857-66.286 66.286v32h54.857v54.857h32zM758.857 265.143q-9.143-9.143-18.857 0.571l-200 200q-9.714 9.714-0.571 18.857t18.857-0.571l200-200q9.714-9.714 0.571-18.857zM804.571 604.571v108.571q0 68-48.286 116.286t-116.286 48.286h-475.429q-68 0-116.286-48.286t-48.286-116.286v-475.429q0-68 48.286-116.286t116.286-48.286h475.429q36 0 66.857 14.286 8.571 4 10.286 13.143 1.714 9.714-5.143 16.571l-28 28q-8 8-18.286 4.571-13.143-3.429-25.714-3.429h-475.429q-37.714 0-64.571 26.857t-26.857 64.571v475.429q0 37.714 26.857 64.571t64.571 26.857h475.429q37.714 0 64.571-26.857t26.857-64.571v-72q0-7.429 5.143-12.571l36.571-36.571q8.571-8.571 20-4t11.429 16.571zM749.714 182.857l164.571 164.571-384 384h-164.571v-164.571zM1003.429 258.286l-52.571 52.571-164.571-164.571 52.571-52.571q16-16 38.857-16t38.857 16l86.857 86.857q16 16 16 38.857t-16 38.857z"
				],
				"attrs": [],
				"isMulticolor": false,
				"tags": [
					"edit",
					"pencil-square-o"
				],
				"defaultCode": 61508,
				"grid": 14
			},
			"attrs": [],
			"properties": {
				"id": 64,
				"order": 22,
				"prevSize": 28,
				"code": 61508,
				"name": "newsession"
			},
			"setIdx": 4,
			"setId": 2,
			"iconIdx": 42
		},
		{
			"icon": {
				"paths": [
					"M838.857 272q8 8 16 20.571h-269.714v-269.714q12.571 8 20.571 16zM566.857 365.714h310.857v603.429q0 22.857-16 38.857t-38.857 16h-768q-22.857 0-38.857-16t-16-38.857v-914.286q0-22.857 16-38.857t38.857-16h457.143v310.857q0 22.857 16 38.857t38.857 16zM658.286 786.286v-36.571q0-8-5.143-13.143t-13.143-5.143h-402.286q-8 0-13.143 5.143t-5.143 13.143v36.571q0 8 5.143 13.143t13.143 5.143h402.286q8 0 13.143-5.143t5.143-13.143zM658.286 640v-36.571q0-8-5.143-13.143t-13.143-5.143h-402.286q-8 0-13.143 5.143t-5.143 13.143v36.571q0 8 5.143 13.143t13.143 5.143h402.286q8 0 13.143-5.143t5.143-13.143zM658.286 493.714v-36.571q0-8-5.143-13.143t-13.143-5.143h-402.286q-8 0-13.143 5.143t-5.143 13.143v36.571q0 8 5.143 13.143t13.143 5.143h402.286q8 0 13.143-5.143t5.143-13.143z"
				],
				"attrs": [],
				"isMulticolor": false,
				"tags": [
					"file-text"
				],
				"defaultCode": 61788,
				"grid": 14
			},
			"attrs": [],
			"properties": {
				"id": 313,
				"order": 13,
				"prevSize": 28,
				"code": 61686,
				"name": "blog"
			},
			"setIdx": 4,
			"setId": 2,
			"iconIdx": 43
		},
		{
			"icon": {
				"paths": [
					"M676.571 512q0 21.143-18.286 31.429l-310.857 182.857q-8.571 5.143-18.286 5.143-9.143 0-18.286-4.571-18.286-10.857-18.286-32v-365.714q0-21.143 18.286-32 18.857-10.286 36.571 0.571l310.857 182.857q18.286 10.286 18.286 31.429zM749.714 512q0-84.571-41.714-156t-113.143-113.143-156-41.714-156 41.714-113.143 113.143-41.714 156 41.714 156 113.143 113.143 156 41.714 156-41.714 113.143-113.143 41.714-156zM877.714 512q0 119.429-58.857 220.286t-159.714 159.714-220.286 58.857-220.286-58.857-159.714-159.714-58.857-220.286 58.857-220.286 159.714-159.714 220.286-58.857 220.286 58.857 159.714 159.714 58.857 220.286z"
				],
				"attrs": [],
				"isMulticolor": false,
				"tags": [
					"play-circle-o"
				],
				"defaultCode": 61469,
				"grid": 14
			},
			"attrs": [],
			"properties": {
				"name": "play-circle",
				"order": 59,
				"id": 29,
				"prevSize": 28,
				"code": 61469
			},
			"setIdx": 4,
			"setId": 2,
			"iconIdx": 44
		},
		{
			"icon": {
				"paths": [
					"M877.714 512q0 89.143-34.857 170.286t-93.714 140-140 93.714-170.286 34.857q-98.286 0-186.857-41.429t-150.857-116.857q-4-5.714-3.714-12.857t4.857-11.714l78.286-78.857q5.714-5.143 14.286-5.143 9.143 1.143 13.143 6.857 41.714 54.286 102.286 84t128.571 29.714q59.429 0 113.429-23.143t93.429-62.571 62.571-93.429 23.143-113.429-23.143-113.429-62.571-93.429-93.429-62.571-113.429-23.143q-56 0-107.429 20.286t-91.429 58l78.286 78.857q17.714 17.143 8 39.429-9.714 22.857-33.714 22.857h-256q-14.857 0-25.714-10.857t-10.857-25.714v-256q0-24 22.857-33.714 22.286-9.714 39.429 8l74.286 73.714q61.143-57.714 139.714-89.429t162.571-31.714q89.143 0 170.286 34.857t140 93.714 93.714 140 34.857 170.286zM512 347.429v256q0 8-5.143 13.143t-13.143 5.143h-182.857q-8 0-13.143-5.143t-5.143-13.143v-36.571q0-8 5.143-13.143t13.143-5.143h128v-201.143q0-8 5.143-13.143t13.143-5.143h36.571q8 0 13.143 5.143t5.143 13.143z"
				],
				"attrs": [],
				"isMulticolor": false,
				"tags": [
					"history"
				],
				"defaultCode": 61914,
				"grid": 14
			},
			"attrs": [],
			"properties": {
				"name": "timer",
				"order": 60,
				"id": 432,
				"prevSize": 28,
				"code": 61914
			},
			"setIdx": 4,
			"setId": 2,
			"iconIdx": 45
		},
		{
			"icon": {
				"paths": [
					"M502.8 0h24.16c20.9 4.34 42.12 12.32 57.7 27.36 47.12 41 42.12 122.92-8.94 158.42-51.28 40.62-135.68 15.62-157.36-46.020-24.72-60.34 20.1-132.92 84.44-139.76z",
					"M392.9 233.020c29.16-6.96 55.26 9.82 75.080 29.060 20.080 18.24 51.9 28.46 76.080 12 22.82-9.8 36.46-34.7 60.78-41.26 45.46-7.52 90.78 23.88 106.54 65.8 10.96 56.38 15.040 114.18 22.62 171.24-105.14 0.1-210.36 0.52-315.48-0.2-5.74-17.060-1.8-38.68-2.22-57.38 21.4-16.34 11.86-45.36 13.82-68.34 4.58-19.32-18.34-41.74-36.78-30.54-27.76 16.36-12.18 55.72-14.2 81.44 19.88 18.68 13.72 49.56 11.46 73.78-32.58 3.18-67.24 0.74-100.6 1.2 3.8-49.24 13-97.94 16.74-147.2 5.42-44.26 41.3-83.82 86.16-89.6z",
					"M104.080 553.96c7.44-23.5 32.94-34.6 55.9-33.92 233.36-0.12 466.72 0.040 700.080-0.080 19.14-1.46 39.58 4.84 52.14 19.9 24.26 28.18 7.18 77.060-29.82 82.62-63.74 3.92-127.78-0.16-191.6 1.94-19.62 132.72-32.62 266.58-50.98 399.58h-256.32c-17.1-131.94-32.5-264.14-49.26-396.12 0.12-3.040-1.32-4.32-4.3-3.84-60.54-0.62-121.12 0.82-181.66-0.5-33.040-0.76-58.38-39.3-44.18-69.58z"
				],
				"attrs": [
					{
						"visibility": false
					},
					{
						"visibility": false
					},
					{
						"visibility": false
					}
				],
				"isMulticolor": false,
				"tags": [
					"presenter-512"
				],
				"grid": 0
			},
			"attrs": [
				{
					"visibility": false
				},
				{
					"visibility": false
				},
				{
					"visibility": false
				}
			],
			"properties": {
				"order": 19,
				"id": 0,
				"prevSize": 32,
				"code": 58882,
				"name": "presenter"
			},
			"setIdx": 1,
			"setId": 5,
			"iconIdx": 0
		},
		{
			"icon": {
				"paths": [
					"M1759.663 225.78c145.967-93.463 348.16-69.632 480.163 38.726-42.449 42.449-83.782 85.83-123.997 130.141-55.855-51.014-134.609-85.83-209.827-57.344-52.503 15.267-70.377 93.649-22.156 125.114 97.001 53.62 222.487 58.275 299.38 146.897 92.532 111.523 43.194 302.732-87.319 362.868-155.462 71.866-351.139 39.098-479.418-73.542 43.008-43.939 86.202-87.878 128.093-132.748 60.323 62.185 152.669 107.241 239.057 74.1 51.2-17.687 68.515-95.884 23.831-129.769-80.989-58.647-190.464-58.647-269.591-121.763-116.55-86.388-99.607-287.837 21.783-362.682z",
					"M2.292 990.057c226.956-267.543 450.188-538.252 679.75-803.747 62.185 1.117 124.369 1.117 186.554 1.117-2.234 267.171-3.537 534.528-2.234 801.699-62.557 0.559-125.114 0.931-187.671 0.559-0.186-51.759 0.559-103.517 2.234-155.276-102.028-1.489-204.055-0.745-306.269-0.745-40.96 52.503-82.665 104.634-124.742 156.207-82.479-0.372-164.957 0-247.622 0.186zM495.86 678.202c61.068-0.931 121.949-1.489 183.017-0.931 0-83.037-1.489-166.074 4.655-248.925-71.68 75.776-123.252 167.936-187.671 249.856z",
					"M958.895 187.241c100.352 0.186 200.518-0.186 300.87-0.186 82.106 0.372 169.612 12.847 236.079 64.977 102.214 79.127 108.172 250.973 13.964 338.851-29.231 27.183-66.839 42.077-102.214 59.392 74.659 110.964 139.823 227.514 212.433 339.596-76.148 0-152.297-0.372-228.445 0.186-60.509-105.193-117.108-212.62-175.569-318.743-21.783-0.186-43.567-0.372-65.164-0.186 2.234 106.124 0.931 212.433 1.303 318.557-64.419 0.186-128.838 0.186-193.257 0 0.186-267.357 0.186-534.9 0-802.444zM1149.359 345.495c1.862 61.812 2.048 123.625 0.559 185.437 62.185-1.117 128.465 8.006 186.927-18.618 50.641-23.459 65.908-100.911 20.852-137.588-58.833-46.545-139.264-26.624-208.337-29.231z"
				],
				"width": 2420,
				"attrs": [],
				"isMulticolor": false,
				"tags": [
					"ars"
				],
				"grid": 0
			},
			"attrs": [],
			"properties": {
				"order": 42,
				"id": 4,
				"prevSize": 32,
				"code": 97,
				"name": "ars",
				"ligatures": ""
			},
			"setIdx": 1,
			"setId": 5,
			"iconIdx": 1
		},
		{
			"icon": {
				"paths": [
					"M99.142 522.671c52.503-77.265 152.483-122.508 243.712-91.974 80.617 20.294 134.051 99.98 135.727 180.969 3.165 120.646-0.745 241.478 1.862 362.124-36.305 0-72.425 0.372-108.73 0.372-0.745-110.964 2.048-222.115-0.931-332.893 1.489-60.881-40.96-129.396-107.613-128.465-84.527-11.543-150.807 67.77-156.579 146.339-4.096 104.82-0.372 209.827-0.931 314.833-36.119 0-72.239 0.186-108.358 0.186-1.303-178.548 3.91-357.097-3.351-535.645 34.071 0.372 68.143 0.745 102.214 0.931 0.931 27.741 2.048 55.482 2.979 83.223z",
					"M846.289 424.367c149.132-24.204 312.227 79.5 330.659 234.217 30.906 155.834-91.601 319.116-250.973 328.239-154.345 25.693-318.743-90.112-327.121-250.228-23.273-151.18 96.070-299.008 247.436-312.227zM828.23 519.878c-116.55 40.774-155.089 198.47-89.553 297.332 54.551 98.863 211.316 110.033 281.879 23.645 57.716-68.329 64.605-172.777 16.756-248.18-40.215-71.68-133.492-97.187-209.082-72.797z",
					"M1833.798 504.239c90.484-79.872 228.817-107.055 340.527-58.461 62.371 25.879 103.145 91.415 106.682 157.882 6.703 123.252-5.585 247.249 8.006 370.316-32.954 0-65.908-0.186-98.863 0-0.931-19.549-2.793-58.647-3.537-78.196-70.935 103.517-228.073 121.391-326.563 49.152-74.1-56.041-77.265-179.665-4.282-237.94 94.58-70.004 217.833-58.833 328.611-68.887-7.261-37.236-10.054-82.479-46.918-103.703-76.335-53.62-177.617-18.991-244.271 34.071-19.921-21.411-39.657-42.822-59.392-64.233zM1954.816 752.605c-46.732 24.576-56.785 96.442-12.66 128.838 67.398 44.684 169.612 24.948 213.923-43.008 23.459-34.444 21.783-78.010 27.183-117.481-76.521 0.186-158.813-5.399-228.445 31.651z",
					"M1216.047 438.889c39.843 0 79.686 0.186 119.343 0 54.179 140.195 106.682 280.948 157.51 422.447 59.951-139.078 104.076-284.672 164.399-423.75 37.423 1.117 74.659 1.489 112.081 1.676-71.308 177.617-144.663 354.676-214.109 533.225-40.029 1.676-80.058 1.676-119.901 1.676-72.239-178.735-144.663-357.469-219.322-535.273z"
				],
				"width": 2513,
				"attrs": [],
				"isMulticolor": false,
				"tags": [
					"nova"
				],
				"grid": 0
			},
			"attrs": [],
			"properties": {
				"order": 43,
				"id": 2,
				"prevSize": 32,
				"code": 110,
				"name": "nova",
				"ligatures": ""
			},
			"setIdx": 1,
			"setId": 5,
			"iconIdx": 2
		},
		{
			"icon": {
				"paths": [
					"M468.938 654.389h93.832v-93.826h-93.832v93.826z",
					"M468.938 513.649h93.832v-93.838h-93.832v93.838z",
					"M468.938 372.887h93.832v-93.826h-93.832v93.826z",
					"M468.938 232.138h93.832v-93.828h-93.832v93.828z",
					"M328.175 372.887h93.832v-93.826h-93.832v93.826z",
					"M328.175 232.138h93.832v-93.828h-93.832v93.828z",
					"M187.43 372.887h93.832v-93.826h-93.832v93.826z",
					"M328.175 654.389h93.832v-93.826h-93.832v93.826z",
					"M328.175 513.649h93.832v-93.838h-93.832v93.838z",
					"M187.43 654.389h93.832v-93.826h-93.832v93.826z",
					"M187.43 513.649h93.832v-93.838h-93.832v93.838z",
					"M1182.817 232.138v422.261h-104.648v-422.261h-140.058v-93.829h384.753v93.829h-140.047z",
					"M1726.275 654.399v-215.676h-181.458v215.676h-104.643v-516.1h104.643v207.775h181.458v-207.775h104.653v516.1h-104.653z",
					"M2329.206 654.399v-292.438l-100.014 198.578-75.653 0.024-100.659-198.602v292.438h-104.663v-516.1h103.163l140.032 289.942 139.295-289.942h103.148v516.1h-104.648z",
					"M238.8 783.987v-12.17h-51.388v12.17h18.974v100.454h13.586v-100.454h18.828zM300.942 884.441v-12.17h-29.888v-38.298h25.784v-12.16h-25.784v-37.826h29.888v-12.17h-43.478v112.624h43.478zM371.018 856.605h-13.416c-0.17 4.756-1.114 9.666-3.646 12.988-1.746 2.208-4.598 3.954-8.866 3.954-4.432 0-7.436-1.746-9.34-4.276-3.96-5.382-4.586-14.402-4.586-41.134 0-26.748 0.626-35.768 4.586-41.15 1.904-2.528 4.908-4.27 9.34-4.27 4.268 0 7.12 1.742 8.866 3.964 2.686 3.322 3.476 8.068 3.646 12.804h13.416c-0.15-9.17-2.836-17.238-8.048-22.302-4.424-4.26-9.97-6.626-17.88-6.626-8.868 0-15.038 3.318-19.306 8.212-7.412 8.546-8.21 18.186-8.21 49.368 0 31.166 0.798 40.806 8.21 49.352 4.268 4.894 10.438 8.212 19.306 8.212 7.436 0 12.984-2.206 17.408-6.16 5.518-5.052 8.37-13.44 8.52-22.936zM443.201 884.441v-112.624h-13.582v49.202h-25.016v-49.202h-13.584v112.624h13.584v-51.25h25.016v51.25h13.582zM521.418 884.441v-112.624h-13.576v77.036l-28.812-77.036h-12.638v112.624h13.586v-77.036l29.12 77.036h12.32zM560.023 771.817h-13.584v112.614h13.584v-112.614zM633.62 854.249c0-17.726-3.002-25.636-15.798-30.864l-12.67-5.222c-9.026-3.798-10.762-7.122-10.762-18.196 0-5.862 1.264-10.45 3.96-13.456 1.894-2.052 4.748-3.472 8.706-3.472 4.278 0 7.282 1.42 9.186 3.8 2.844 3.476 3.476 7.582 3.476 13.598h13.584c0-10.286-1.738-17.556-7.424-23.090-4.256-4.096-10.428-6.478-18.672-6.478-7.436 0-13.452 2.382-17.874 6.478-5.674 5.222-8.528 13.276-8.528 23.090 0 17.092 3.796 23.42 15.322 28.176l12.83 5.212c9.178 3.794 11.078 7.752 11.078 20.726 0 7.434-0.634 11.72-3.638 15.042-2.058 2.208-5.062 3.626-9.664 3.626-4.266 0-7.434-1.418-9.34-3.478-3.002-3.164-3.792-7.28-3.792-14.724h-13.586c0 12.036 1.738 18.53 6.95 23.732 4.424 4.422 11.068 6.788 19.768 6.788 9.024 0 15.67-2.678 19.936-6.788 5.368-5.372 6.952-12.806 6.952-24.5zM704.328 856.605h-13.419c-0.168 4.756-1.11 9.666-3.644 12.988-1.75 2.208-4.596 3.954-8.868 3.954-4.434 0-7.436-1.746-9.342-4.276-3.96-5.382-4.582-14.402-4.582-41.134 0-26.748 0.622-35.768 4.582-41.15 1.906-2.528 4.908-4.27 9.342-4.27 4.272 0 7.118 1.742 8.868 3.964 2.684 3.322 3.476 8.068 3.644 12.804h13.419c-0.154-9.17-2.836-17.238-8.049-22.302-4.424-4.26-9.974-6.626-17.882-6.626-8.866 0-15.040 3.318-19.294 8.212-7.424 8.546-8.214 18.186-8.214 49.368 0 31.166 0.79 40.806 8.214 49.352 4.254 4.894 10.428 8.212 19.294 8.212 7.436 0 12.984-2.206 17.406-6.16 5.52-5.052 8.372-13.44 8.525-22.936zM775.67 884.441v-112.624h-13.583v49.202h-25.011v-49.202h-13.583v112.624h13.583v-51.25h25.011v51.25h13.583zM842.348 884.441v-12.17h-29.906v-38.298h25.784v-12.16h-25.784v-37.826h29.906v-12.17h-43.479v112.624h43.479zM949.898 884.441v-112.624h-13.568v49.202h-25.016v-49.202h-13.594v112.624h13.594v-51.25h25.016v51.25h13.568zM1025.516 828.137c0-31.182-0.942-41.298-8.207-49.368-4.419-4.894-10.44-8.212-19.308-8.212-8.852 0-14.879 3.318-19.292 8.212-7.276 8.070-8.223 18.186-8.223 49.368 0 31.166 0.947 41.282 8.223 49.352 4.413 4.894 10.44 8.212 19.292 8.212 8.868 0 14.889-3.318 19.308-8.212 7.265-8.070 8.207-18.186 8.207-49.352zM1011.942 828.137c0 26.732-0.788 35.752-4.762 41.134-1.894 2.53-4.741 4.276-9.18 4.276-4.434 0-7.434-1.746-9.339-4.276-3.948-5.382-4.593-14.402-4.593-41.134 0-26.748 0.645-35.768 4.593-41.15 1.905-2.528 4.905-4.27 9.339-4.27 4.439 0 7.286 1.742 9.18 4.27 3.973 5.382 4.762 14.402 4.762 41.15zM1098.332 856.605h-13.42c-0.159 4.756-1.121 9.666-3.645 12.988-1.736 2.208-4.598 3.954-8.868 3.954-4.439 0-7.439-1.746-9.344-4.276-3.948-5.382-4.582-14.402-4.582-41.134 0-26.748 0.635-35.768 4.582-41.15 1.905-2.528 4.905-4.27 9.344-4.27 4.27 0 7.132 1.742 8.868 3.964 2.698 3.322 3.487 8.068 3.645 12.804h13.42c-0.164-9.17-2.842-17.238-8.064-22.302-4.419-4.26-9.948-6.626-17.869-6.626-8.858 0-15.037 3.318-19.308 8.212-7.414 8.546-8.207 18.186-8.207 49.368 0 31.166 0.794 40.806 8.207 49.352 4.27 4.894 10.45 8.212 19.308 8.212 7.444 0 12.974-2.206 17.398-6.16 5.53-5.052 8.371-13.44 8.535-22.936zM1170.509 884.441v-112.624h-13.594v49.202h-25.006v-49.202h-13.583v112.624h13.583v-51.25h25.006v51.25h13.594zM1244.119 854.249c0-17.726-3.005-25.636-15.8-30.864l-12.677-5.222c-9.006-3.798-10.757-7.122-10.757-18.196 0-5.862 1.27-10.45 3.958-13.456 1.905-2.052 4.746-3.472 8.694-3.472 4.28 0 7.296 1.42 9.19 3.8 2.852 3.476 3.487 7.582 3.487 13.598h13.588c0-10.286-1.746-17.556-7.424-23.090-4.27-4.096-10.435-6.478-18.673-6.478-7.444 0-13.445 2.382-17.884 6.478-5.678 5.222-8.53 13.276-8.53 23.090 0 17.092 3.799 23.42 15.345 28.176l12.815 5.212c9.18 3.794 11.075 7.752 11.075 20.726 0 7.434-0.635 11.72-3.64 15.042-2.053 2.208-5.069 3.626-9.646 3.626-4.285 0-7.45-1.418-9.344-3.478-3.011-3.164-3.814-7.28-3.814-14.724h-13.588c0 12.036 1.756 18.53 6.953 23.732 4.434 4.422 11.075 6.788 19.794 6.788 9.011 0 15.652-2.678 19.922-6.788 5.371-5.372 6.958-12.806 6.958-24.5zM1314.826 856.605h-13.44c-0.138 4.756-1.111 9.666-3.625 12.988-1.746 2.208-4.593 3.954-8.868 3.954-4.434 0-7.444-1.746-9.354-4.276-3.948-5.382-4.582-14.402-4.582-41.134 0-26.748 0.635-35.768 4.582-41.15 1.91-2.528 4.92-4.27 9.354-4.27 4.275 0 7.122 1.742 8.868 3.964 2.693 3.322 3.487 8.068 3.625 12.804h13.44c-0.164-9.17-2.852-17.238-8.059-22.302-4.434-4.26-9.953-6.626-17.874-6.626-8.868 0-15.037 3.318-19.308 8.212-7.424 8.546-8.218 18.186-8.218 49.368 0 31.166 0.794 40.806 8.218 49.352 4.27 4.894 10.44 8.212 19.308 8.212 7.434 0 12.979-2.206 17.388-6.16 5.54-5.052 8.381-13.44 8.545-22.936zM1386.158 884.441v-112.624h-13.588v49.202h-24.996v-49.202h-13.594v112.624h13.594v-51.25h24.996v51.25h13.588zM1460.844 858.831v-87.014h-13.588v87.802c0 8.854-5.709 13.928-12.508 13.928-6.81 0-12.355-5.074-12.355-13.928v-87.802h-13.578v87.014c0 8.234 2.678 14.864 7.276 19.44 4.895 4.9 11.382 7.43 18.657 7.43 7.286 0 13.926-2.53 18.821-7.43 4.582-4.576 7.276-11.206 7.276-19.44zM1526.984 884.441v-12.17h-29.906v-100.454h-13.578v112.624h43.484zM1589.207 884.441v-12.17h-29.911v-38.298h25.784v-12.16h-25.784v-37.826h29.911v-12.17h-43.474v112.624h43.474zM1715.604 884.441v-112.624h-12.815l-22.61 62.642-22.794-62.642h-12.795v112.624h13.583v-78.92l17.572 51.39h8.381l17.884-52.66v80.19h13.594zM1751.813 771.817h-13.573v112.614h13.573v-112.614zM1821.875 783.987v-12.17h-51.395v12.17h18.995v100.454h13.583v-100.454h18.816zM1888.522 783.987v-12.17h-51.379v12.17h18.98v100.454h13.578v-100.454h18.821zM1950.689 884.441v-12.17h-29.906v-38.298h25.795v-12.16h-25.795v-37.826h29.906v-12.17h-43.484v112.624h43.484zM2014.403 884.441v-12.17h-29.906v-100.454h-13.578v112.624h43.484zM2085.335 884.441v-112.624h-13.594v49.202h-25.011v-49.202h-13.588v112.624h13.588v-51.25h25.011v51.25h13.594zM2152.013 884.441v-12.17h-29.906v-38.298h25.784v-12.16h-25.784v-37.826h29.906v-12.17h-43.494v112.624h43.494zM2222.935 854.249c0-17.726-3.005-25.636-15.805-30.864l-12.672-5.222c-9.016-3.798-10.762-7.122-10.762-18.196 0-5.862 1.27-10.45 3.953-13.456 1.915-2.052 4.756-3.472 8.73-3.472 4.26 0 7.27 1.42 9.165 3.8 2.857 3.476 3.492 7.582 3.492 13.598h13.573c0-10.286-1.731-17.556-7.409-23.090-4.275-4.096-10.44-6.478-18.688-6.478-7.434 0-13.44 2.382-17.874 6.478-5.678 5.222-8.52 13.276-8.52 23.090 0 17.092 3.789 23.42 15.324 28.176l12.815 5.212c9.19 3.794 11.095 7.752 11.095 20.726 0 7.434-0.645 11.72-3.645 15.042-2.058 2.208-5.069 3.626-9.651 3.626-4.275 0-7.439-1.418-9.344-3.478-3.016-3.164-3.799-7.28-3.799-14.724h-13.578c0 12.036 1.736 18.53 6.948 23.732 4.413 4.422 11.064 6.788 19.773 6.788 9.011 0 15.652-2.678 19.927-6.788 5.371-5.372 6.953-12.806 6.953-24.5zM2294.886 854.249c0-17.726-3-25.636-15.795-30.864l-12.672-5.222c-9.011-3.798-10.762-7.122-10.762-18.196 0-5.862 1.27-10.45 3.948-13.456 1.92-2.052 4.756-3.472 8.73-3.472 4.26 0 7.276 1.42 9.17 3.8 2.847 3.476 3.482 7.582 3.482 13.598h13.583c0-10.286-1.736-17.556-7.419-23.090-4.27-4.096-10.435-6.478-18.678-6.478-7.434 0-13.44 2.382-17.874 6.478-5.683 5.222-8.52 13.276-8.52 23.090 0 17.092 3.784 23.42 15.329 28.176l12.82 5.212c9.18 3.794 11.085 7.752 11.085 20.726 0 7.434-0.65 11.72-3.651 15.042-2.053 2.208-5.069 3.626-9.656 3.626-4.27 0-7.434-1.418-9.339-3.478-3.011-3.164-3.799-7.28-3.799-14.724h-13.578c0 12.036 1.731 18.53 6.953 23.732 4.408 4.422 11.059 6.788 19.763 6.788 9.021 0 15.662-2.678 19.932-6.788 5.371-5.372 6.948-12.806 6.948-24.5zM2358.769 884.441v-12.17h-29.911v-38.298h25.795v-12.16h-25.795v-37.826h29.911v-12.17h-43.484v112.624h43.484zM2434.028 884.441v-112.624h-13.578v77.036l-28.82-77.036h-12.636v112.624h13.578v-77.036l29.133 77.036h12.324z",
					"M744.289 654.379h12.58v-516.070h-12.58v516.070z"
				],
				"width": 2621,
				"attrs": [],
				"isMulticolor": false,
				"tags": [
					"THM Kopie"
				],
				"grid": 0
			},
			"attrs": [],
			"properties": {
				"order": 44,
				"id": 1,
				"prevSize": 32,
				"code": 58883,
				"name": "thm-full",
				"ligatures": ""
			},
			"setIdx": 1,
			"setId": 5,
			"iconIdx": 3
		},
		{
			"icon": {
				"paths": [
					"M213.484 37.001c-1.881 0.596-12.831 10.262-25.413 22.503-43.247 42.076-70.959 90.237-85.025 147.725-6.938 28.354-8.611 92.559-3.147 121.719 10.106 53.933 35.17 106.651 67.984 142.975 4.312 4.773 8.186 8.669 8.609 8.669s-0.759-3.735-2.672-8.313c-5.879-14.072-18.836-67.808-22.8-94.644-14.004-94.794-0.835-195.769 37.228-285.416 5.761-13.569 14.12-31.255 18.584-39.306s7.572-15.228 6.887-15.912c-0.043-0.043-0.112-0.040-0.238 0zM810.441 37.001c-0.171-0.014-0.33-0.026-0.416 0.059-0.723 0.723 1.312 5.814 4.513 11.281s10.735 20.895 16.744 34.259c41.27 91.789 56.025 196.661 41.503 295.094-3.92 26.569-17.149 81.217-23.156 95.594l-3.503 8.372 7.244-6.888c11.014-10.47 31.363-40.335 42.928-62.997 21.414-41.962 30.939-83.237 31.053-134.425 0.151-68.021-15.226-118.129-53.556-174.206-12.682-18.553-58.042-65.702-63.353-66.144zM307 82.304l-9.025 7.125c-14.247 11.284-40.636 40.6-52.131 57.891-13.925 20.947-25.702 47.148-33.25 74.1-11.872 42.754-7.988 85.267 0.416 130.744 10.73 35.34 30.394 72.416 51.063 96.247 3.949 4.553 7.446 8.114 7.778 7.897s-1.048-5.020-3.028-10.628c-6.517-18.459-14.577-53.695-18.525-80.75-4.697-32.187-3.568-103.399 2.137-133.831 8.644-46.106 24.356-91.94 44.353-129.556l10.212-19.237zM717.816 83.017l13.894 28.144c16.934 34.214 29.046 69.451 37.109 107.944 7.421 35.424 10.388 103.934 5.938 137.691-4.574 34.689-13.596 73.552-22.681 97.791-0.83 2.215 3.065-1.177 8.609-7.541 30.618-35.146 53.695-90.128 57.356-136.503 6.803-86.183-25.464-164.86-89.775-218.737l-10.45-8.787zM357.291 161.154c-0.646 0.123-1.979 1.053-3.919 2.434-10.542 7.507-31.383 31.272-40.375 46.075-40.054 65.936-34.552 151.544 13.478 209.891 3.647 4.43 6.973 7.752 7.363 7.362s-1.899-9.552-5.047-20.366c-13.014-44.702-15.654-103.044-6.65-146.953 5.354-26.111 18.288-63.771 28.678-83.6 5.997-11.445 7.893-15.114 6.472-14.844zM666.575 161.154c-1.422-0.271 0.475 3.399 6.472 14.844 10.398 19.844 23.353 57.611 28.619 83.481 10.103 49.639 5.755 111.725-11.519 164.469-2.361 7.209 12.656-10.3 21.612-25.175 17.227-28.61 25.703-58.959 25.769-92.388 0.069-35.097-8.792-67.31-26.659-96.722-8.992-14.803-29.833-38.568-40.375-46.075-1.94-1.381-3.273-2.311-3.919-2.434zM511.309 189.179c-9.195 0.062-18.51 1.138-27.788 3.325-38.048 8.97-71.276 38.383-84.313 74.575-6.053 16.803-8.057 47.651-4.216 65.134 9.918 45.142 49.249 82.133 97.256 91.438 3.182 0.617 14.653 0.711 25.472 0.237 45.798-2.004 81.931-26.016 102.6-68.222 15.346-31.397 14.034-73.958-9.441-114.178-22.215-33.469-59.727-52.577-99.572-52.309zM501.869 452.567c-15.458 0.006-29.326 0.457-36.753 1.484-47.749 6.604-73.564 23.307-79.384 51.241-3.511 16.851-1.569 185.138 2.434 211.197 5.326 34.663 42.553 176.772 59.613 227.466 10.63 31.589 13.057 34.052 39.841 40.197 34.316 7.873 71.43-1.008 80.691-19.297 11.543-22.796 60.263-202.744 67.509-249.316 3.923-25.21 5.786-193.712 2.316-210.366-5.319-25.525-28.39-42.189-67.984-49.162-12.31-2.168-42.517-3.453-68.281-3.444z"
				],
				"attrs": [],
				"isMulticolor": false,
				"tags": [
					"arsnova-color"
				],
				"grid": 32
			},
			"attrs": [],
			"properties": {
				"order": 45,
				"id": 3,
				"prevSize": 32,
				"code": 114,
				"name": "radar",
				"ligatures": ""
			},
			"setIdx": 2,
			"setId": 4,
			"iconIdx": 0
		},
		{
			"icon": {
				"paths": [
					"M427.909 81.879c51.692 0.164 103.424-0.164 155.116 0.164-0.287 51.487-0.451 102.973 0.082 154.46-51.692 0.41-103.424 0.287-155.116 0.082 0.287-51.569 0.369-103.137-0.082-154.706z",
					"M655.196 81.961c51.692 0.041 103.342-0.246 155.034 0.123 0.123 51.487-0.041 103.014 0.041 154.501-51.651 0.328-103.342 0.082-154.993 0.123-0.287-51.569-0.205-103.178-0.082-154.747z",
					"M200.417 309.658c51.692-0.082 103.342 0.082 155.034-0.123 0.246 51.692 0.246 103.383-0.041 155.034-51.61-0.164-103.26 0-154.87-0.041 0.164-51.651 0.451-103.26-0.123-154.87z",
					"M427.95 309.78c51.651-0.246 103.301-0.164 154.993-0.082-0.164 51.569-0.246 103.178 0 154.747-51.651 0.041-103.301 0.205-154.911-0.082 0.205-51.528 0.287-103.055-0.082-154.583z",
					"M655.237 309.658c51.61-0.123 103.219 0.164 154.829-0.164 0.41 51.692 0.205 103.383 0.082 155.075-51.651-0.123-103.26 0-154.911-0.082-0.205-51.61-0.164-103.219 0-154.829z",
					"M200.909 536.33c51.487 0.451 103.014 0.41 154.501 0 0.369 51.651 0.246 103.301 0.041 154.952-51.446 0.451-102.892 0-154.337 0.205-0.655-51.692-0.532-103.424-0.205-155.156z",
					"M427.909 536.535c51.651-0.041 103.301 0.328 154.952-0.164 0 51.61-0.205 103.219 0.123 154.829-51.732 0.451-103.424 0.328-155.156 0.041 0.573-51.569 0.532-103.137 0.082-154.706z",
					"M655.237 536.617c51.61 0.041 103.219-0.164 154.829 0.082 0.41 51.528 0.205 103.096 0.082 154.624-51.61 0.246-103.26 0.082-154.911 0.123-0.205-51.61-0.164-103.219 0-154.829z",
					"M200.499 763.576c51.651-0.205 103.342 0.041 155.034-0.123 0.123 51.855 0.041 103.67 0.041 155.484-51.692 0.369-103.383 0.328-155.034 0 0.369-51.773 0.205-103.547-0.041-155.361z",
					"M427.991 763.576c51.651 0 103.301-0.246 154.952 0.082-0.246 51.773-0.164 103.547-0.041 155.32-51.61 0.369-103.219 0.123-154.788 0.082 0.082-51.855 0.205-103.67-0.123-155.484z",
					"M655.196 763.535c51.692-0.082 103.342 0.082 154.993-0.123 0.164 51.814 0.041 103.629 0.041 155.443-51.651 0.614-103.342 0.164-155.034 0.246-0.123-51.855-0.123-103.711 0-155.566z"
				],
				"attrs": [],
				"isMulticolor": false,
				"tags": [
					"thm"
				],
				"grid": 32
			},
			"attrs": [],
			"properties": {
				"order": 46,
				"id": 0,
				"prevSize": 32,
				"code": 116,
				"name": "thm",
				"ligatures": ""
			},
			"setIdx": 2,
			"setId": 4,
			"iconIdx": 1
		},
		{
			"icon": {
				"paths": [
					"M640 256v-256h-448l-192 192v576h384v256h640v-768h-384zM192 90.51v101.49h-101.49l101.49-101.49zM64 704v-448h192v-192h320v192l-192 192v256h-320zM576 346.51v101.49h-101.49l101.49-101.49zM960 960h-512v-448h192v-192h320v640z"
				],
				"attrs": [],
				"isMulticolor": false,
				"tags": [
					"copy",
					"duplicate",
					"files",
					"pages",
					"papers",
					"documents"
				],
				"defaultCode": 57489,
				"grid": 16
			},
			"attrs": [],
			"properties": {
				"id": 208,
				"order": 17,
				"prevSize": 32,
				"code": 59692,
				"ligatures": "copy, duplicate",
				"name": "copy"
			},
			"setIdx": 3,
			"setId": 3,
			"iconIdx": 0
		},
		{
			"icon": {
				"paths": [
					"M1024 657.542c0-82.090-56.678-150.9-132.996-169.48-3.242-128.7-108.458-232.062-237.862-232.062-75.792 0-143.266 35.494-186.854 90.732-24.442-31.598-62.69-51.96-105.708-51.96-73.81 0-133.642 59.874-133.642 133.722 0 6.436 0.48 12.76 1.364 18.954-11.222-2.024-22.766-3.138-34.57-3.138-106.998-0.002-193.732 86.786-193.732 193.842 0 107.062 86.734 193.848 193.73 193.848l656.262-0.012c96.138-0.184 174.008-78.212 174.008-174.446z"
				],
				"attrs": [],
				"isMulticolor": false,
				"tags": [
					"cloud",
					"weather"
				],
				"defaultCode": 58037,
				"grid": 16
			},
			"attrs": [],
			"properties": {
				"order": 16,
				"id": 375,
				"prevSize": 32,
				"name": "cloud",
				"code": 58037
			},
			"setIdx": 3,
			"setId": 3,
			"iconIdx": 1
		},
		{
			"icon": {
				"paths": [
					"M891.004 360.060c-3.242-128.698-108.458-232.060-237.862-232.060-75.792 0-143.266 35.494-186.854 90.732-24.442-31.598-62.69-51.96-105.708-51.96-73.81 0-133.642 59.876-133.642 133.722 0 6.436 0.48 12.76 1.364 18.954-11.222-2.024-22.766-3.138-34.57-3.138-106.998-0.002-193.732 86.786-193.732 193.842 0 107.062 86.734 193.848 193.73 193.848h91.76l226.51 234.51 226.51-234.51 111.482-0.012c96.138-0.184 174.008-78.21 174.008-174.446 0-82.090-56.678-150.9-132.996-169.482zM512 832l-192-192h128v-192h128v192h128l-192 192z"
				],
				"attrs": [],
				"isMulticolor": false,
				"tags": [
					"cloud-download",
					"cloud",
					"save",
					"download"
				],
				"defaultCode": 58038,
				"grid": 16
			},
			"attrs": [],
			"properties": {
				"order": 39,
				"id": 376,
				"prevSize": 32,
				"name": "cloud-download",
				"code": 58038
			},
			"setIdx": 3,
			"setId": 3,
			"iconIdx": 2
		},
		{
			"icon": {
				"paths": [
					"M892.268 386.49c2.444-11.11 3.732-22.648 3.732-34.49 0-88.366-71.634-160-160-160-14.222 0-28.014 1.868-41.132 5.352-24.798-77.352-97.29-133.352-182.868-133.352-87.348 0-161.054 58.336-184.326 138.17-22.742-6.622-46.792-10.17-71.674-10.17-141.384 0-256 114.616-256 256 0 141.388 114.616 256 256 256h128v192h256v-192h224c88.366 0 160-71.632 160-160 0-78.72-56.854-144.162-131.732-157.51zM576 640v192h-128v-192h-160l224-224 224 224h-160z"
				],
				"attrs": [],
				"isMulticolor": false,
				"tags": [
					"cloud-upload",
					"cloud",
					"load",
					"upload"
				],
				"defaultCode": 58039,
				"grid": 16
			},
			"attrs": [],
			"properties": {
				"order": 40,
				"id": 377,
				"prevSize": 32,
				"name": "cloud-upload",
				"code": 58039
			},
			"setIdx": 3,
			"setId": 3,
			"iconIdx": 3
		},
		{
			"icon": {
				"paths": [
					"M256 320c0-141.385 114.615-256 256-256s256 114.615 256 256c0 141.385-114.615 256-256 256s-256-114.615-256-256zM768 640h-512c-141.384 0-256 114.618-256 256v64h1024v-64c0-141.382-114.616-256-256-256z"
				],
				"attrs": [],
				"isMulticolor": false,
				"tags": [
					"user",
					"profile",
					"avatar",
					"person",
					"talk",
					"member"
				],
				"grid": 16
			},
			"attrs": [],
			"properties": {
				"id": 116,
				"order": 41,
				"prevSize": 32,
				"code": 58900,
				"name": "user",
				"ligatures": ""
			},
			"setIdx": 3,
			"setId": 3,
			"iconIdx": 4
		},
		{
			"icon": {
				"paths": [
					"M320 192c0-106.039 85.961-192 192-192s192 85.961 192 192c0 106.039-85.961 192-192 192s-192-85.961-192-192zM768.078 448h-35.424l-199.104 404.244 74.45-372.244-96-96-96 96 74.45 372.244-199.102-404.244h-35.424c-127.924 0-127.924 85.986-127.924 192v320h768v-320c0-106.014 0-192-127.922-192z"
				],
				"attrs": [],
				"isMulticolor": false,
				"tags": [
					"user",
					"profile",
					"avatar",
					"person",
					"talk",
					"member",
					"employee",
					"job",
					"official"
				],
				"grid": 16
			},
			"attrs": [],
			"properties": {
				"id": 117,
				"order": 34,
				"prevSize": 32,
				"code": 58901,
				"name": "speaker",
				"ligatures": ""
			},
			"setIdx": 3,
			"setId": 3,
			"iconIdx": 5
		},
		{
			"icon": {
				"paths": [
					"M512 0c-282.77 0-512 229.23-512 512s229.23 512 512 512 512-229.23 512-512-229.23-512-512-512zM704 256c35.348 0 64 42.98 64 96s-28.652 96-64 96-64-42.98-64-96 28.652-96 64-96zM320 256c35.346 0 64 42.98 64 96s-28.654 96-64 96-64-42.98-64-96 28.654-96 64-96zM512 896c-166.868 0-305.422-139.872-320-318.304 93.77 54.114 204.050 85.064 320 85.064s226.23-30.806 320-84.92c-14.574 178.438-153.128 318.16-320 318.16z"
				],
				"attrs": [],
				"isMulticolor": false,
				"tags": [
					"happy",
					"emoticon",
					"smiley",
					"face"
				],
				"grid": 16
			},
			"attrs": [],
			"properties": {
				"id": 215,
				"order": 32,
				"prevSize": 32,
				"code": 58902,
				"name": "happy",
				"ligatures": ""
			},
			"setIdx": 3,
			"setId": 3,
			"iconIdx": 6
		},
		{
			"icon": {
				"paths": [
					"M512 0c-282.77 0-512 229.23-512 512s229.23 512 512 512 512-229.23 512-512-229.23-512-512-512zM704 256c35.346 0 64 28.654 64 64s-28.654 64-64 64-64-28.654-64-64 28.654-64 64-64zM320 256c35.346 0 64 28.654 64 64s-28.654 64-64 64-64-28.654-64-64 28.654-64 64-64zM704.098 780.74c-39.174-65.148-110.544-108.74-192.098-108.74-81.556 0-152.924 43.592-192.098 108.74l-82.328-49.396c55.96-93.070 157.916-155.344 274.426-155.344 116.508 0 218.464 62.274 274.426 155.344l-82.328 49.396z"
				],
				"attrs": [],
				"isMulticolor": false,
				"tags": [
					"sad",
					"emoticon",
					"smiley",
					"face"
				],
				"grid": 16
			},
			"attrs": [],
			"properties": {
				"id": 221,
				"order": 29,
				"prevSize": 32,
				"code": 58903,
				"name": "sad",
				"ligatures": ""
			},
			"setIdx": 3,
			"setId": 3,
			"iconIdx": 7
		},
		{
			"icon": {
				"paths": [
					"M512 0c-282.77 0-512 229.228-512 512 0 282.77 229.228 512 512 512 282.77 0 512-229.23 512-512 0-282.772-229.23-512-512-512zM704 256c35.346 0 64 42.98 64 96s-28.654 96-64 96-64-42.98-64-96 28.654-96 64-96zM352 312.062c59.646 0 102 22.332 102 57.282 0 7.398 3.812 42.994-0.17 49.594-14.828-24.576-54.81-42.188-101.83-42.188s-87.002 17.612-101.83 42.188c-3.982-6.6-0.17-42.196-0.17-49.594 0-34.95 42.354-57.282 102-57.282zM500.344 832c-119.242 0-223.858-64.28-282.892-160.952 70.41 55.060 194.534 65.81 325.288 39.978 140.248-27.706 249.11-91.542 288.454-176.594-21.654 167.96-161.518 297.568-330.85 297.568z"
				],
				"attrs": [],
				"isMulticolor": false,
				"tags": [
					"wink",
					"emoticon",
					"smiley",
					"face"
				],
				"grid": 16
			},
			"attrs": [],
			"properties": {
				"id": 223,
				"order": 28,
				"prevSize": 32,
				"code": 58904,
				"name": "wink",
				"ligatures": ""
			},
			"setIdx": 3,
			"setId": 3,
			"iconIdx": 8
		},
		{
			"icon": {
				"paths": [
					"M512 0c-282.77 0-512 229.23-512 512s229.23 512 512 512 512-229.23 512-512-229.23-512-512-512zM320 448c-35.346 0-64-42.98-64-96s28.654-96 64-96 64 42.98 64 96-28.654 96-64 96zM512 832c-70.692 0-128-57.308-128-128s57.308-128 128-128c70.692 0 128 57.308 128 128s-57.308 128-128 128zM704 448c-35.346 0-64-42.98-64-96s28.654-96 64-96 64 42.98 64 96-28.654 96-64 96z"
				],
				"attrs": [],
				"isMulticolor": false,
				"tags": [
					"shocked",
					"emoticon",
					"smiley",
					"face"
				],
				"grid": 16
			},
			"attrs": [],
			"properties": {
				"id": 233,
				"order": 25,
				"prevSize": 32,
				"code": 58905,
				"name": "shocked",
				"ligatures": ""
			},
			"setIdx": 3,
			"setId": 3,
			"iconIdx": 9
		},
		{
			"icon": {
				"paths": [
					"M1014.662 822.66c-0.004-0.004-0.008-0.008-0.012-0.010l-310.644-310.65 310.644-310.65c0.004-0.004 0.008-0.006 0.012-0.010 3.344-3.346 5.762-7.254 7.312-11.416 4.246-11.376 1.824-24.682-7.324-33.83l-146.746-146.746c-9.148-9.146-22.45-11.566-33.828-7.32-4.16 1.55-8.070 3.968-11.418 7.31 0 0.004-0.004 0.006-0.008 0.010l-310.648 310.652-310.648-310.65c-0.004-0.004-0.006-0.006-0.010-0.010-3.346-3.342-7.254-5.76-11.414-7.31-11.38-4.248-24.682-1.826-33.83 7.32l-146.748 146.748c-9.148 9.148-11.568 22.452-7.322 33.828 1.552 4.16 3.97 8.072 7.312 11.416 0.004 0.002 0.006 0.006 0.010 0.010l310.65 310.648-310.65 310.652c-0.002 0.004-0.006 0.006-0.008 0.010-3.342 3.346-5.76 7.254-7.314 11.414-4.248 11.376-1.826 24.682 7.322 33.83l146.748 146.746c9.15 9.148 22.452 11.568 33.83 7.322 4.16-1.552 8.070-3.97 11.416-7.312 0.002-0.004 0.006-0.006 0.010-0.010l310.648-310.65 310.648 310.65c0.004 0.002 0.008 0.006 0.012 0.008 3.348 3.344 7.254 5.762 11.414 7.314 11.378 4.246 24.684 1.826 33.828-7.322l146.746-146.748c9.148-9.148 11.57-22.454 7.324-33.83-1.552-4.16-3.97-8.068-7.314-11.414z"
				],
				"attrs": [],
				"isMulticolor": false,
				"tags": [
					"close",
					"cancel",
					"quit",
					"remove",
					"cross"
				],
				"grid": 16
			},
			"attrs": [],
			"properties": {
				"id": 253,
				"order": 24,
				"prevSize": 32,
				"code": 58906,
				"name": "close",
				"ligatures": ""
			},
			"setIdx": 3,
			"setId": 3,
			"iconIdx": 10
		},
		{
			"icon": {
				"paths": [
					"M734.994 805.374c-18.952-2.988-19.384-54.654-19.384-54.654s55.688-54.656 67.824-128.152c32.652 0 52.814-78.138 20.164-105.628 1.362-28.94 41.968-227.176-163.598-227.176-205.564 0-164.958 198.236-163.598 227.176-32.654 27.49-12.488 105.628 20.162 105.628 12.134 73.496 67.826 128.152 67.826 128.152s-0.432 51.666-19.384 54.654c-61.048 9.632-289.006 109.316-289.006 218.626h768c0-109.31-227.958-208.994-289.006-218.626zM344.054 822.81c44.094-27.15 97.626-52.308 141.538-67.424-15.752-22.432-33.294-52.936-44.33-89.062-15.406-12.566-27.944-30.532-35.998-52.602-8.066-22.104-11.122-46.852-8.608-69.684 1.804-16.392 6.478-31.666 13.65-45.088-4.35-46.586-7.414-138.034 52.448-204.732 23.214-25.866 52.556-44.46 87.7-55.686-6.274-64.76-39.16-140.77-166.454-140.77-205.564 0-164.958 198.236-163.598 227.176-32.654 27.49-12.488 105.628 20.162 105.628 12.134 73.496 67.826 128.152 67.826 128.152s-0.432 51.666-19.384 54.654c-61.048 9.634-289.006 109.318-289.006 218.628h329.596c4.71-3.074 9.506-6.14 14.458-9.19z"
				],
				"attrs": [],
				"isMulticolor": false,
				"tags": [
					"users",
					"people",
					"group",
					"team",
					"members",
					"community"
				],
				"grid": 16
			},
			"attrs": [],
			"properties": {
				"id": 113,
				"order": 21,
				"prevSize": 32,
				"code": 58880,
				"name": "users",
				"ligatures": ""
			},
			"setIdx": 3,
			"setId": 3,
			"iconIdx": 11
		},
		{
			"icon": {
				"paths": [
					"M896 128v832h-672c-53.022 0-96-42.98-96-96 0-53.018 42.978-96 96-96h608v-768h-640c-70.398 0-128 57.6-128 128v768c0 70.4 57.602 128 128 128h768v-896h-64zM256 832h576v64h-576z"
				],
				"attrs": [],
				"isMulticolor": false,
				"tags": [
					"book",
					"reading"
				],
				"grid": 16
			},
			"attrs": [],
			"properties": {
				"id": 31,
				"order": 20,
				"prevSize": 32,
				"code": 58881,
				"name": "book2"
			},
			"setIdx": 3,
			"setId": 3,
			"iconIdx": 12
		},
		{
			"icon": {
				"paths": [
					"M320 64h-256v256h256v-256zM384 0v0 384h-384v-384h384zM128 128h128v128h-128zM960 64h-256v256h256v-256zM1024 0v0 384h-384v-384h384zM768 128h128v128h-128zM320 704h-256v256h256v-256zM384 640v0 384h-384v-384h384zM128 768h128v128h-128zM448 0h64v64h-64zM512 64h64v64h-64zM448 128h64v64h-64zM512 192h64v64h-64zM448 256h64v64h-64zM512 320h64v64h-64zM448 384h64v64h-64zM448 512h64v64h-64zM512 576h64v64h-64zM448 640h64v64h-64zM512 704h64v64h-64zM448 768h64v64h-64zM512 832h64v64h-64zM448 896h64v64h-64zM512 960h64v64h-64zM960 512h64v64h-64zM64 512h64v64h-64zM128 448h64v64h-64zM0 448h64v64h-64zM256 448h64v64h-64zM320 512h64v64h-64zM384 448h64v64h-64zM576 512h64v64h-64zM640 448h64v64h-64zM704 512h64v64h-64zM768 448h64v64h-64zM832 512h64v64h-64zM896 448h64v64h-64zM960 640h64v64h-64zM576 640h64v64h-64zM640 576h64v64h-64zM704 640h64v64h-64zM832 640h64v64h-64zM896 576h64v64h-64zM960 768h64v64h-64zM576 768h64v64h-64zM640 704h64v64h-64zM768 704h64v64h-64zM832 768h64v64h-64zM896 704h64v64h-64zM960 896h64v64h-64zM640 832h64v64h-64zM704 896h64v64h-64zM768 832h64v64h-64zM832 896h64v64h-64zM640 960h64v64h-64zM768 960h64v64h-64zM896 960h64v64h-64z"
				],
				"attrs": [],
				"isMulticolor": false,
				"tags": [
					"qrcode"
				],
				"defaultCode": 57535,
				"grid": 16
			},
			"attrs": [],
			"properties": {
				"id": 256,
				"order": 18,
				"prevSize": 32,
				"code": 59704,
				"ligatures": "qrcode",
				"name": "qrcode"
			},
			"setIdx": 3,
			"setId": 3,
			"iconIdx": 13
		}
	],
	"height": 1024,
	"metadata": {
		"name": "arsnova"
	},
	"preferences": {
		"showGlyphs": true,
		"showQuickUse": true,
		"showQuickUse2": true,
		"showSVGs": true,
		"fontPref": {
			"prefix": "icon-",
			"metadata": {
				"fontFamily": "arsnova",
				"majorVersion": 1,
				"minorVersion": 0
			},
			"metrics": {
				"emSize": 1024,
				"baseline": 6.25,
				"whitespace": 50
			}
		},
		"imagePref": {
			"prefix": "icon-",
			"png": true,
			"useClassSelector": true,
			"color": 4473924,
			"bgColor": 16777215
		},
		"historySize": 100,
		"showCodes": false
	}
}